{
"autoplayBgm":true,"autoplayBgs":false,"battleback1Name":"","battleback2Name":"","bgm":{"name":"Town2","pan":0,"pitch":100,"volume":90},"bgs":{"name":"","pan":0,"pitch":100,"volume":90},"disableDashing":false,"displayName":"Tour Infernale (Extérieur)","encounterList":[],"encounterStep":30,"height":41,"note":"","parallaxLoopX":false,"parallaxLoopY":false,"parallaxName":"","parallaxShow":true,"parallaxSx":0,"parallaxSy":0,"scrollType":0,"specifyBattleback":false,"tilesetId":2,"width":21,
"data":[7235,7234,7234,7234,7234,7234,7234,7238,7656,7644,7644,7644,7654,7235,7234,7234,7234,7234,7234,7234,7238,7233,7232,7232,7232,7232,7232,7232,7236,8003,8002,8002,8002,8006,7233,7232,7232,7232,7232,7232,7232,7236,7233,7232,7232,7232,7232,7232,7232,7236,8001,8000,8000,8000,8004,7233,7232,7232,7232,7232,7232,7232,7236,7233,7232,7232,7232,7232,7232,7232,7236,8001,8000,8000,8000,8004,7233,7232,7232,7232,7232,7232,7232,7236,7233,7232,7232,7232,7232,7232,7232,7236,8009,8008,8008,8008,8012,7233,7232,7232,7232,7232,7232,7232,7236,7233,7232,7232,7232,7232,7232,7232,7236,1586,1586,1586,1586,1586,7233,7232,7232,7232,7232,7232,7232,7236,7233,7232,7232,7232,7232,7232,7232,7236,1586,1586,1586,1586,1586,7233,7232,7232,7232,7232,7232,7232,7236,7233,7232,7232,7232,7232,7232,7232,7236,1586,1586,1586,1586,1586,7233,7232,7232,7232,7232,7232,7232,7236,7241,7240,7240,7240,7240,7240,7240,7244,1592,1593,1593,1597,1598,7241,7240,7240,7240,7240,7240,7240,7244,2836,2836,2836,2836,2836,2836,2836,2852,1596,1593,1597,1597,1598,2850,2836,2836,2836,2836,2836,2836,2836,2816,2816,2816,2816,2816,2816,2816,2840,1588,1588,1584,1584,1584,2832,2816,2816,2816,2816,2816,2816,2816,2816,2816,2816,2816,2816,2816,2816,2840,1584,1588,1584,1584,1588,2832,2816,2816,2816,2816,2816,2816,2816,2816,2816,2816,2816,2816,2816,2816,2840,1584,1584,1584,1588,1584,2832,2816,2816,2816,2816,2816,2816,2816,2816,2816,2816,2816,2816,2816,2816,2840,1588,1584,1588,1588,1584,2832,2816,2816,2816,2816,2816,2816,2816,2816,2816,2816,2816,2816,2816,2816,2840,1584,1588,1584,1584,1588,2832,2816,2816,2816,2816,2816,2816,2816,2816,2816,2816,2816,2816,2816,2816,2840,1584,1584,1584,1588,1584,2832,2816,2816,2816,2816,2816,2816,2816,2816,2816,2816,2816,2816,2816,2816,2840,1588,1588,1584,1584,1588,2832,2816,2816,2816,2816,2816,2816,2816,2816,2816,2816,2816,2816,2816,2816,2840,1584,1584,1588,1584,1588,2832,2816,2816,2816,2816,2816,2816,2816,2816,2816,2816,2816,2816,2816,2816,2840,1584,1584,1588,1588,1584,2832,2816,2816,2816,2816,2816,2816,2816,2816,2816,2816,2816,2816,2816,2816,2840,1588,1584,1584,1588,1584,2832,2816,2816,2816,2816,2816,2816,2816,2816,2816,2816,2816,2816,2816,2816,2840,1588,1588,1588,1584,1584,2832,2816,2816,2816,2816,2816,2816,2816,2844,2844,2844,2844,2844,2844,2844,2846,2849,2861,1588,2859,2849,2845,2844,2844,2844,2844,2844,2844,2844,2356,2356,2356,2356,2356,2356,2356,2356,2356,2356,2356,2356,2356,2356,2356,2356,2356,2356,2356,2356,2356,2336,2336,2336,2336,2336,2336,2336,2336,2336,2336,2336,2336,2336,2336,2336,2336,2336,2336,2336,2336,2336,2364,2364,2364,2364,2364,2364,2364,2364,2364,2364,2364,2364,2364,2364,2364,2364,2364,2364,2364,2364,2364,2836,2836,2836,2836,2836,2836,2836,2836,2837,2861,2906,2859,2838,2836,2836,2836,2836,2836,2836,2836,2836,2820,2844,2844,2844,2844,2844,2844,2844,2841,2898,2867,2900,2832,2816,2816,2816,2816,2816,2816,2816,2816,2840,5219,5218,5218,5218,5218,5218,5222,2848,2904,2872,2888,2832,2816,2820,2844,2844,2844,2844,2824,2816,2840,5225,5224,5224,5224,5224,5224,5228,2833,2852,2880,2888,2832,2816,2840,5219,5218,5218,5222,2832,2816,2840,5603,5602,5602,5602,5602,5602,5606,2832,2840,2880,2888,2856,2824,2840,5225,5224,5224,5228,2832,2816,2840,5609,5608,5608,5608,5608,5608,5612,2856,2854,2882,2894,2909,2832,2840,5603,5602,5602,5606,2832,2816,2818,2836,2852,2907,2886,2884,2884,2884,2884,2885,2903,2851,2849,2845,2854,5609,5608,5608,5612,2832,2816,2816,2816,2818,2852,2904,2892,2892,2892,2872,2888,2859,2855,2898,2884,2885,2897,2909,2859,2838,2817,2816,2816,2816,2816,2818,2836,2836,2836,2852,2880,2866,2884,2884,2869,2892,2902,2850,2852,2910,2834,2844,2824,2816,2816,2820,2844,2824,2816,2820,2854,2904,2872,2864,2868,2902,2850,2836,2817,2818,2836,2842,2910,2832,2816,2816,2840,2910,2832,2816,2840,2906,2862,2904,2892,2902,2850,2817,2816,2816,2816,2816,2818,2836,2817,2816,2816,2818,2836,2817,2820,2854,2881,2900,2859,2838,2836,2817,2816,2816,2816,2816,2816,2816,2816,2816,2816,2816,2816,2816,2816,2840,2898,2865,2866,2900,2832,2816,2816,2816,2816,2816,2816,2816,2816,2816,2816,2816,2816,2816,2816,2816,2840,2904,2876,2892,2902,2832,2816,2816,2816,2816,2816,2816,2816,2816,2816,2816,2816,2816,2816,2816,2816,2818,2852,2908,2850,2837,2845,2824,2816,2816,2816,2816,2816,2816,2816,2816,2816,2816,2816,2816,2816,2816,2816,2818,2836,2817,2840,2906,2832,2816,2816,2816,2816,2816,2816,2816,2816,2816,0,0,0,0,0,0,0,0,3168,3176,0,0,0,0,0,0,0,0,3184,0,0,0,0,0,0,3194,0,0,0,3170,3190,0,3198,0,0,0,0,0,0,3196,0,0,0,0,0,3186,3178,0,0,0,3196,0,0,0,0,0,0,0,0,0,0,0,0,0,0,3195,3165,3190,0,0,0,0,0,0,0,0,0,0,0,0,0,0,0,0,0,0,0,3196,0,0,0,0,0,0,0,0,0,0,0,0,0,0,0,0,0,0,0,0,0,0,0,0,0,0,0,3194,0,0,0,0,0,0,0,0,0,0,0,0,0,0,0,0,0,0,3198,0,3193,3197,0,0,0,0,0,0,0,0,0,0,0,0,0,0,0,0,0,0,0,0,0,3198,0,0,0,0,0,0,0,0,0,0,0,0,0,0,0,0,0,0,0,0,0,0,0,0,0,0,0,0,0,0,0,0,3042,3028,3044,0,0,0,0,0,0,0,0,0,3042,3028,3044,0,0,0,0,3042,3028,3009,3012,3038,3053,3530,3090,3076,3076,3076,3092,3530,0,3024,3008,3010,3044,0,0,0,3048,3036,3016,3032,0,0,3520,3072,3056,3056,3056,3080,3520,3042,3009,3008,3008,3010,3028,3028,3044,0,0,3048,3046,0,0,3520,3072,3056,3056,3056,3080,3520,3024,3008,3008,3008,3008,3008,3008,3010,3044,0,0,0,3050,0,3520,3072,3056,3056,3056,3080,3520,3048,3036,3020,3036,3036,3016,3008,3008,3032,0,0,3051,3039,3053,3520,3072,3056,3056,3056,3080,3520,0,0,3052,0,0,3048,3016,3008,3032,0,0,0,0,0,3520,3072,3056,3056,3056,3080,3520,0,0,0,3054,0,0,3048,3036,3046,0,0,0,3042,3044,3520,3072,3056,3056,3056,3080,3520,0,0,0,0,0,3050,0,0,0,0,3042,3028,3009,3032,3520,3072,3056,3056,3056,3080,3520,3050,0,0,0,3051,3047,0,3044,0,3051,3037,3016,3012,3046,3520,3072,3056,3056,3056,3080,3520,3025,3028,3044,0,0,0,0,3032,0,0,0,3048,3046,0,3520,3072,3056,3056,3056,3080,3520,3048,3016,3032,0,0,0,0,3010,3029,3053,0,0,0,0,3520,3096,3084,3068,3084,3094,3520,0,3048,3046,0,0,0,0,3036,3046,0,0,0,0,0,3529,3521,3525,3100,3523,3521,3527,0,0,0,0,0,0,0,0,0,0,0,0,0,0,0,0,3520,0,3520,0,0,0,0,0,0,0,0,0,0,0,0,0,0,0,0,0,0,3520,0,3520,0,0,0,0,0,0,0,0,0,0,0,0,0,0,0,0,0,0,3520,0,3520,0,0,0,0,0,0,0,0,0,3521,3521,3521,3521,3521,3521,3521,3521,3521,3527,0,3529,3521,3521,3521,3521,3521,3521,3521,3521,3521,0,0,0,0,0,3051,3053,0,0,0,0,0,0,0,3042,3029,3053,0,0,0,0,0,0,0,0,0,0,0,0,3054,0,0,0,0,0,3048,3046,0,0,0,0,0,0,0,0,0,0,0,0,0,0,0,0,0,0,0,0,0,0,0,0,0,0,0,0,0,0,0,0,0,0,0,0,0,0,3054,0,0,0,0,0,0,0,0,0,0,0,0,0,0,0,0,0,0,0,0,0,0,0,0,0,0,0,0,0,0,0,0,0,0,0,0,0,0,0,0,0,0,0,0,0,0,0,0,0,0,0,0,3054,0,0,0,0,0,0,0,0,0,0,0,0,0,0,3042,3044,0,0,0,0,0,0,0,0,0,0,0,0,0,0,0,0,0,0,0,3024,3032,0,0,0,0,0,3051,3053,0,0,0,0,0,0,0,0,0,0,3042,3028,3009,3032,0,0,0,0,3054,0,0,0,0,0,0,0,0,0,0,0,3042,3013,3036,3016,3010,3044,0,0,0,0,0,0,0,0,0,0,0,0,0,0,0,3048,3046,0,3048,3016,3032,0,0,0,0,0,0,3054,0,0,0,0,0,0,3050,0,0,0,0,0,3048,3046,0,0,0,0,0,0,0,0,0,0,0,0,3051,3047,0,0,0,0,0,0,0,0,0,0,0,0,3042,3044,0,0,0,0,0,0,0,0,0,0,0,0,0,0,0,0,0,0,0,3024,3010,3044,0,0,0,0,0,0,0,0,0,0,0,0,0,0,456,457,0,0,0,0,0,449,0,0,0,0,0,0,0,0,0,0,0,456,457,448,449,0,0,0,0,0,457,0,0,0,0,0,0,0,0,0,0,0,448,449,0,0,0,0,0,0,448,449,0,0,0,0,0,0,0,0,0,0,0,0,0,456,457,0,0,0,0,448,449,0,0,0,0,0,0,0,0,0,0,0,456,457,448,449,0,0,0,0,456,457,0,0,0,0,0,0,0,0,0,0,0,448,449,0,0,0,0,0,0,448,449,0,0,0,0,0,0,0,0,0,0,0,0,0,456,457,0,0,0,0,448,449,0,0,0,0,0,0,0,0,0,0,0,456,457,448,457,0,0,0,0,456,457,0,0,0,0,0,0,0,0,0,0,196,448,449,0,449,0,0,0,0,448,449,0,0,0,0,0,0,0,0,0,0,204,0,0,464,465,0,0,0,0,464,465,0,0,0,0,0,0,0,0,0,0,0,0,465,0,0,0,0,0,0,0,0,0,0,0,0,0,0,0,0,0,0,0,0,0,0,0,0,0,0,0,0,0,0,0,0,0,0,0,0,0,0,0,0,0,0,0,0,0,0,0,0,0,0,0,0,0,0,0,0,0,0,88,0,0,0,0,0,0,0,0,0,0,0,0,0,0,0,0,0,0,0,101,0,0,0,0,0,0,101,0,0,0,0,0,0,0,0,0,0,0,0,0,0,0,0,0,0,0,0,0,0,0,0,0,0,0,0,0,0,0,0,0,0,0,0,0,0,0,0,0,0,0,0,0,0,0,0,0,0,0,0,0,0,0,0,0,0,0,0,0,0,0,0,0,0,0,0,0,0,0,0,0,0,0,0,0,0,0,0,0,0,0,0,0,0,0,0,0,0,0,0,0,0,0,0,0,0,0,0,0,0,0,0,0,0,0,0,0,0,0,0,0,0,0,0,0,0,0,0,0,0,0,0,0,0,0,0,0,0,0,0,0,0,0,0,0,0,0,0,0,0,0,0,0,0,0,0,0,0,0,0,0,0,0,0,0,0,0,0,0,0,0,0,0,0,0,0,0,0,0,0,0,0,0,0,0,0,0,0,0,0,0,0,0,0,0,0,0,0,0,0,0,0,0,0,0,0,0,0,0,0,0,0,0,0,0,0,0,0,0,0,0,0,0,0,0,0,0,0,0,0,0,0,0,0,0,0,0,0,0,0,0,0,0,0,0,0,0,0,0,0,0,0,0,0,0,0,0,0,0,92,0,0,0,0,0,0,0,0,0,0,0,0,0,0,0,0,0,0,0,0,0,0,0,0,0,0,0,0,0,0,0,0,0,0,0,0,0,93,93,0,0,0,0,0,0,0,0,0,0,0,0,0,0,0,0,0,0,0,0,0,0,0,0,0,0,0,0,0,0,0,0,0,0,0,0,0,0,0,0,0,0,0,0,0,0,0,0,0,0,0,0,0,0,0,0,0,0,0,0,0,0,0,0,0,0,0,0,0,0,0,0,0,0,0,0,0,0,0,0,0,0,0,0,0,0,0,0,0,0,0,0,0,0,0,0,0,0,0,0,0,0,0,0,101,0,0,0,0,0,0,0,0,0,0,0,0,0,0,0,0,0,0,0,0,176,0,0,0,0,0,0,0,0,0,0,0,0,0,0,0,0,0,0,0,0,0,0,0,0,0,0,0,0,0,0,0,0,0,0,0,0,0,0,0,0,0,0,0,0,0,0,0,0,0,0,0,0,0,0,0,0,0,0,0,0,0,0,0,0,0,0,0,0,0,0,0,0,0,0,97,0,0,0,0,0,0,0,0,0,0,0,0,101,0,0,0,0,0,0,0,0,0,0,0,0,92,92,0,0,0,0,0,0,0,0,0,0,0,0,0,0,0,0,0,0,92,0,0,0,0,0,0,0,0,0,0,0,0,0,0,0,0,0,0,0,92,92,0,101,0,0,0,0,448,449,206,0,0,0,448,194,0,0,0,0,0,448,449,0,0,0,0,448,449,456,457,0,0,0,0,456,202,0,0,0,0,0,456,457,0,0,0,0,456,457,448,449,0,0,0,0,194,202,0,0,0,0,0,448,449,0,0,0,0,448,449,448,449,0,0,0,0,202,202,196,0,0,0,0,448,449,196,0,0,0,448,449,456,457,0,0,0,197,202,202,204,0,0,0,207,456,457,204,0,192,0,456,457,448,449,0,0,0,205,202,202,0,0,0,0,0,448,449,192,0,200,0,448,449,448,449,0,0,0,193,202,202,0,0,0,0,0,448,449,200,198,200,0,448,449,456,194,196,0,0,201,202,202,0,0,0,0,0,456,457,200,206,200,197,456,457,448,202,204,203,207,201,202,202,0,0,0,0,0,448,449,200,192,200,205,448,449,93,202,97,88,0,0,202,202,0,0,0,0,0,464,465,88,0,168,96,464,93,94,88,0,0,0,0,0,0,0,0,0,0,0,0,97,0,0,176,0,93,94,94,93,0,93,91,96,0,0,0,0,0,0,0,0,0,0,89,0,0,94,94,94,94,107,101,0,0,0,0,0,0,0,0,0,0,0,93,168,89,0,94,94,94,94,168,0,177,0,0,0,0,0,0,0,0,0,0,168,176,0,0,101,94,94,93,176,96,0,0,0,0,0,0,0,0,0,0,107,176,0,97,0,93,94,94,94,93,0,0,93,0,0,0,0,0,0,0,0,0,0,0,0,0,94,94,94,94,94,0,0,101,0,0,0,0,0,0,0,0,0,96,93,0,0,94,94,94,94,94,88,0,0,0,0,0,0,0,0,0,0,0,0,101,0,0,94,94,94,94,101,91,168,89,0,0,0,0,0,0,0,0,0,0,0,0,0,101,94,94,94,0,0,176,0,97,0,0,0,0,0,0,0,0,91,0,0,0,100,94,94,101,93,97,0,107,0,0,0,0,0,0,0,0,97,0,0,0,107,0,94,101,0,101,0,0,0,0,0,0,0,20,0,0,0,0,0,0,0,96,0,101,0,0,0,0,0,0,0,0,0,0,20,0,0,0,0,0,0,0,0,0,0,190,0,189,0,0,0,191,0,0,0,20,0,0,0,0,0,190,0,0,191,0,191,0,0,0,0,190,0,0,0,0,20,0,0,0,189,0,0,0,0,0,0,93,0,0,0,0,0,0,0,0,0,20,0,0,0,0,0,0,0,0,0,93,94,168,0,96,0,0,0,0,0,0,0,0,0,0,0,88,0,97,93,93,94,94,0,0,0,0,0,72,0,0,0,0,0,0,93,89,91,96,93,94,94,94,94,0,0,0,0,0,0,0,0,0,0,0,0,101,0,0,0,0,72,94,94,94,0,0,8,0,4,0,0,106,0,0,0,0,0,0,0,0,0,0,94,94,94,93,33,0,70,0,33,0,106,0,0,0,0,0,86,0,0,0,0,94,94,94,94,92,0,0,0,77,77,0,0,0,97,0,0,106,0,70,34,93,94,94,94,94,0,93,0,0,0,0,0,0,0,0,0,0,0,0,0,0,101,168,94,94,94,0,101,0,96,0,0,0,0,0,0,0,0,93,0,0,0,91,93,94,94,94,97,0,89,0,93,0,0,0,75,0,0,0,101,89,0,0,0,94,94,94,94,93,0,93,0,101,0,0,0,0,0,0,0,0,88,93,89,93,94,94,94,94,94,0,101,0,0,0,0,0,0,0,93,96,91,0,101,171,94,94,94,94,94,94,100,0,0,0,0,0,0,304,0,101,0,0,0,0,93,94,94,94,94,94,93,93,0,93,0,0,0,0,312,0,0,92,92,93,93,94,94,94,94,94,94,94,94,88,101,97,0,96,0,0,0,0,92,179,94,94,94,94,94,94,94,94,94,94,91,89,0,0,0,97,0,0,92,179,179,101,94,94,94,94,94,0,0,0,0,0,0,0,0,5,0,0,0,0,0,0,0,0,0,0,0,0,0,0,0,0,0,0,0,0,5,0,0,0,0,0,0,0,0,0,0,0,0,0,0,0,0,0,0,0,8,5,0,0,0,0,0,0,0,0,0,0,0,0,0,0,0,0,0,0,0,2,5,0,0,0,0,0,0,0,0,0,0,0,0,0,0,0,0,0,0,0,0,5,0,0,0,0,0,0,0,0,0,0,0,0,0,0,0,0,0,0,0,0,5,0,0,0,0,0,0,0,0,0,0,0,0,0,0,0,0,0,0,0,0,5,0,0,0,0,0,0,0,0,0,0,0,0,0,0,0,0,0,0,0,0,5,0,0,0,0,0,0,0,0,0,0,0,0,0,0,0,0,0,0,0,0,5,0,0,0,0,0,0,0,0,0,0,0,0,0,0,0,0,0,0,0,0,0,0,0,0,0,0,0,0,0,0,0,0,0,0,0,0,0,0,0,0,0,0,0,0,0,0,0,0,0,0,0,0,0,0,0,0,0,0,0,0,0,0,0,0,0,0,0,0,0,0,0,0,0,0,0,0,0,0,0,0,0,0,0,0,0,0,0,0,0,0,0,0,0,0,0,0,0,0,0,0,0,0,0,0,0,0,0,0,0,0,0,0,0,0,0,0,0,0,0,0,0,0,0,0,0,0,0,0,0,0,0,0,0,0,0,0,0,0,0,0,0,0,0,0,0,0,0,0,0,0,0,0,0,0,0,0,0,0,0,0,0,0,0,0,0,0,0,0,0,0,0,0,0,0,0,0,0,0,0,0,0,0,0,0,0,0,0,0,0,0,0,0,0,0,0,0,0,0,0,0,0,0,0,0,0,0,0,0,0,0,0,0,0,0,0,0,0,0,0,0,0,0,0,0,0,0,0,0,0,0,0,0,0,0,0,0,0,0,0,0,0,0,0,0,0,0,0,0,0,0,0,0,0,0,0,0,0,0,0,0,0,0,0,0,0,0,0,0,0,0,0,0,0,0,0,0,0,0,0,0,0,0,0,0,0,0,0,0,0,0,0,0,0,0,0,0,0,0,0,0,0,0,0,0,0,0,0,0,0,0,0,0,0,0,0,0,0,0,0,0,0,0,0,0,0,0,0,0,0,0,0,0,0,0,0,0,0,0,0,0,0,0,0,0,0,0,0,0,0,0,0,0,0,0,0,0,0,0,0,0,0,0,0,0,0,0,0,0,0,0,0,0,0,0,0,0,0,0,0,0,0,0,0,0,0,0,0,0,0,0,0,0,0,0,0,0,0,0,0,0,0,0,0,0,0,0,0,0,0,0,0,0,0,0,0,0,0,0,0,5,0,0,0,0,0,0,0,0,0,0,0,0,0,0,0,0,0,0,0,0,5,0,0,0,0,0,0,0,0,0,0,5,0,0,0,0,0,0,0,0,0,5,0,0,0,0,0,0,0,0,0,0,5,0,0,0,0,0,0,0,0,0,0,0,0,0,0,0,0,0,0,0,0,5,0,0,0,0,0,0,0,0,0,0,0,0,0,0,0,0,0,0,0,0,0,0,0,0,0,0,0,0,0,0,0,0,0,0,0,0,0,0,0,0,0,0,0,0,0,0,0,0,0,0,0,0,0,0,0,0,0,0,0,0,0,0,0,0,0,0,0,0,0,0,0,0,0,0,0,0,0,0,0,0,0,0,0,0,0,0,0,0,0,0,0,0,0,0,0,0,0,0,0,0,0,0,0,0,0,0,0,0,0,0,0,0,0,0,0,0,0,0,0,0,0,0,0,0,0,0,0,0,0,0,0,0,0,0,0,0,0,0,0,0,0,0,0,0,0,0,0,0,0,0,0,0,0,0,0,0,0,0,0,0,0,0,0,0,0,0,0,0,0,0,0,0,0,0,0,0,0,0,0,0,0,0,0,0,0,0,0,0,0,0,0,0,0,0,0,0,0,0,0,0,0,0,0,0,0,0,0,0,0,0,0,0,0,0,0,0,0,0,0,0,0,0,0,0,0,0,0,0,0,0,0,0,0,0,0,0,0,0,0,0,0,0,0,0,0,0,0,0,0,0,0,0,0,0,0,0,0,0,0,0,0,0,0,0,0,0,0,0,0,0,0,0,0,0,0,0,0,0,0,0,0,0,0,0,0,0,0,0,0,0,0,0,0,0,0,0,0,0,0,0,0,0,0,0,0,0,0,0,0,0,0,0,0,0,0,0,0,0,0,0,0,0,0,0,0,0,0,0,0,0,0,0,0,0,0,0,0,0,0,0,0,0,0,0,0,0,0,0,0,0,0,0,0,0,0,0,0,0,0,0,0,0,0,0,0,0,0,0,0,0,0,0,0,0,0,0,0,0,0,0,0,0,0,0,0,0,0,0,0,0,0,0,0,0,0,0,0,0,0,0,0,0,0,0,0,0,0,0,0,0,0,0,0,0,0,0,0,0,0,0,0,0,0,0,0,0,0,0,0,0,0,0,0,0,0,0,0,0,0,0,0,0,0,0,0,0,0,0,0,0,0,0,0,0,0,0,0,0,0,0,0,0,0,0,0,0,0,0,0,0,0,0,0,0,0,0,0,0,0,0,0,0,0,0,0,0,0,0,0,0,0,0,0,0,0,0,0,0,0,0,0,0,0,0,0,0,0,0,0,0,0,0,0,0,0,0,0,0,0,0,0,0,0,0,0,0,0,0,0,0,0,0,0,0,0,0,0,0,0,0,0,0,0,0,0,0,0,0,0,0,0,0,0,0,0,0,0,0,0,0,0,0,0,0,0,0,0,0,0,0,0,0,0,0,0,0,0,0,0,0,0,0,0,0,0,0,0,0,0,0,0,0,0,0,0,0,0,0,0,0,0,0,0,0,0,0,0,0,0,0,0,0,0,0,0,0,0,0,0,0,0,0,0,0,0,0,0,0,0,0,0,0,0,0,0,0,0,0,0,0,0,0,0,0,0,0,0,0,0,0,0,0,0,0,0,0,0,0,0,0,0,0,0,0,0,0,0,0,0,0,0,0,0,0,0,0,0,0,0,0,0,0,0,0,0,0,0,0,0,0,0,0,0,0,0,0,0,0,0,0,0,0,0,0,0,0,0,0,0,0,0,0,0,0,0,0,0,0,0,0,0,0,0,0,0,0,0,0,0,0,0,0,0,0,0,0,0,0,0,0,0,0,0,0,0,0,0,0,0,0,0,0,0,0,0,0,0,0,0,0,0,0,0,0,0,0,0,0,0,0,0,0,0,0,0,0,0,0,0,0,0,0,0,0,0,0,0,0,0,0,0,0,0,0,0,0,0,0,0,0,0,0,0,0,0,0,0,0,0,0,0,0,0,0,0,0,0,0,0,0,0,0,0,0,0,0,0,0,0,0,0,0,0,0,0,0,0,0,0,0,0,0,0,0,0,0,0,0,0,0,0,0,0,0,0,0,0,0,0,0,0,0,0,0,0,0,0,0,0,0,0,0,0,0,0,0,0,0,0,0,0,0,0,0,0,0,0,0,0,0,0,0,0,0,0,0,0,0,0,0,0,0,0,0,0,0,0,0,0,0,0,0,0,0,0,0,0,0,0,0,0,0,0,0,0,0,0,0,0,0,0,0,0,0,0,0,0,0,0,0,0,0,0,0,0,0,0,0,0,0,0,0,0,0,0,0,0,0,0,0,0,0,0,0,0,0,0,0,0,0,0,0,0,0,0,0,0,0,0,0,0,0,0,0,0,0,0,0,0,0,0,0,0,0,0,0,0,0,0,0,0,0,0,0,0,0,0,0,0,0,0,0,0,0,0,0,0,0,0,0,0,0,0,0,0,0,0,0,0,0,0,0,0,0,0,0,0,0,0,0,0,0,0,0,0,0,0,0,0,0,0],
"events":[
null,
{"id":1,"name":"EV001","note":"","pages":[{"conditions":{"actorId":1,"actorValid":false,"itemId":1,"itemValid":false,"selfSwitchCh":"A","selfSwitchValid":false,"switch1Id":1,"switch1Valid":false,"switch2Id":1,"switch2Valid":false,"variableId":1,"variableValid":false,"variableValue":0},"directionFix":false,"image":{"tileId":0,"characterName":"Nature","direction":2,"pattern":1,"characterIndex":2},"list":[{"code":101,"indent":0,"parameters":["Nature",2,0,2]},{"code":401,"indent":0,"parameters":["Côt côt côt ?"]},{"code":0,"indent":0,"parameters":[]}],"moveFrequency":2,"moveRoute":{"list":[{"code":0,"parameters":[]}],"repeat":true,"skippable":false,"wait":false},"moveSpeed":4,"moveType":1,"priorityType":1,"stepAnime":false,"through":false,"trigger":0,"walkAnime":true}],"x":9,"y":30},
{"id":2,"name":"EV002","note":"","pages":[{"conditions":{"actorId":1,"actorValid":false,"itemId":1,"itemValid":false,"selfSwitchCh":"A","selfSwitchValid":false,"switch1Id":1,"switch1Valid":false,"switch2Id":1,"switch2Valid":false,"variableId":1,"variableValid":false,"variableValue":0},"directionFix":false,"image":{"tileId":0,"characterName":"Nature","direction":6,"pattern":0,"characterIndex":2},"list":[{"code":101,"indent":0,"parameters":["Nature",2,0,2]},{"code":401,"indent":0,"parameters":["Côt codec !"]},{"code":0,"indent":0,"parameters":[]}],"moveFrequency":2,"moveRoute":{"list":[{"code":0,"parameters":[]}],"repeat":true,"skippable":false,"wait":false},"moveSpeed":4,"moveType":1,"priorityType":1,"stepAnime":false,"through":false,"trigger":0,"walkAnime":true}],"x":13,"y":35},
{"id":3,"name":"EV003","note":"","pages":[{"conditions":{"actorId":1,"actorValid":false,"itemId":1,"itemValid":false,"selfSwitchCh":"A","selfSwitchValid":false,"switch1Id":1,"switch1Valid":false,"switch2Id":1,"switch2Valid":false,"variableId":1,"variableValid":false,"variableValue":0},"directionFix":false,"image":{"tileId":0,"characterName":"Nature","direction":2,"pattern":1,"characterIndex":0},"list":[{"code":101,"indent":0,"parameters":["",0,0,2]},{"code":401,"indent":0,"parameters":["Vous avez trouvé un..."]},{"code":101,"indent":0,"parameters":["Nature",0,0,2]},{"code":401,"indent":0,"parameters":["Wouf !"]},{"code":101,"indent":0,"parameters":["",0,0,2]},{"code":401,"indent":0,"parameters":["... Ah non, pardon !"]},{"code":0,"indent":0,"parameters":[]}],"moveFrequency":3,"moveRoute":{"list":[{"code":0,"parameters":[]}],"repeat":true,"skippable":false,"wait":false},"moveSpeed":3,"moveType":0,"priorityType":1,"stepAnime":false,"through":false,"trigger":0,"walkAnime":true}],"x":5,"y":31},
{"id":4,"name":"EV004","note":"","pages":[{"conditions":{"actorId":1,"actorValid":false,"itemId":1,"itemValid":false,"selfSwitchCh":"A","selfSwitchValid":false,"switch1Id":1,"switch1Valid":false,"switch2Id":1,"switch2Valid":false,"variableId":1,"variableValid":false,"variableValue":0},"directionFix":false,"image":{"tileId":0,"characterName":"Monster","direction":2,"pattern":1,"characterIndex":4},"list":[{"code":0,"indent":0,"parameters":[]}],"moveFrequency":3,"moveRoute":{"list":[{"code":0,"parameters":[]}],"repeat":true,"skippable":false,"wait":false},"moveSpeed":3,"moveType":1,"priorityType":1,"stepAnime":false,"through":false,"trigger":0,"walkAnime":true}],"x":5,"y":12},
{"id":5,"name":"EV005","note":"","pages":[{"conditions":{"actorId":1,"actorValid":false,"itemId":1,"itemValid":false,"selfSwitchCh":"A","selfSwitchValid":false,"switch1Id":1,"switch1Valid":false,"switch2Id":1,"switch2Valid":false,"variableId":1,"variableValid":false,"variableValue":0},"directionFix":false,"image":{"tileId":0,"characterName":"Monster","direction":2,"pattern":1,"characterIndex":4},"list":[{"code":0,"indent":0,"parameters":[]}],"moveFrequency":3,"moveRoute":{"list":[{"code":0,"parameters":[]}],"repeat":true,"skippable":false,"wait":false},"moveSpeed":3,"moveType":1,"priorityType":1,"stepAnime":false,"through":false,"trigger":0,"walkAnime":true}],"x":17,"y":17},
{"id":6,"name":"EV006","note":"","pages":[{"conditions":{"actorId":1,"actorValid":false,"itemId":1,"itemValid":false,"selfSwitchCh":"A","selfSwitchValid":false,"switch1Id":1,"switch1Valid":false,"switch2Id":1,"switch2Valid":false,"variableId":1,"variableValid":false,"variableValue":0},"directionFix":false,"image":{"characterIndex":0,"characterName":"","direction":2,"pattern":0,"tileId":0},"list":[{"code":250,"indent":0,"parameters":[{"name":"Move1","pan":0,"pitch":100,"volume":90}]},{"code":201,"indent":0,"parameters":[0,158,34,9,0,0]},{"code":0,"indent":0,"parameters":[]}],"moveFrequency":3,"moveRoute":{"list":[{"code":0,"parameters":[]}],"repeat":true,"skippable":false,"wait":false},"moveSpeed":3,"moveType":0,"priorityType":0,"stepAnime":false,"through":false,"trigger":1,"walkAnime":true}],"x":10,"y":40},
{"id":7,"name":"EV007","note":"","pages":[{"conditions":{"actorId":1,"actorValid":false,"itemId":1,"itemValid":false,"selfSwitchCh":"A","selfSwitchValid":false,"switch1Id":1,"switch1Valid":false,"switch2Id":1,"switch2Valid":false,"variableId":1,"variableValid":false,"variableValue":0},"directionFix":false,"image":{"tileId":0,"characterName":"Evil","direction":2,"pattern":1,"characterIndex":3},"list":[{"code":217,"indent":0,"parameters":[]},{"code":111,"indent":0,"parameters":[8,38]},{"code":101,"indent":1,"parameters":["Evil",3,0,2]},{"code":401,"indent":1,"parameters":["Bienvenue..."]},{"code":401,"indent":1,"parameters":["Derrière moi se trouve une tour. A son"]},{"code":401,"indent":1,"parameters":["sommet un immense trésor..."]},{"code":401,"indent":1,"parameters":["Je vous laisse passer pour 100 \\G..."]},{"code":102,"indent":1,"parameters":[["Payer","Partir"],1,0,2,0]},{"code":402,"indent":1,"parameters":[0,"Payer"]},{"code":111,"indent":2,"parameters":[7,100,0]},{"code":125,"indent":3,"parameters":[1,0,100]},{"code":101,"indent":3,"parameters":["",3,0,2]},{"code":401,"indent":3,"parameters":["Vous perdez 100 \\G."]},{"code":101,"indent":3,"parameters":["Evil",3,0,2]},{"code":401,"indent":3,"parameters":["Hin hin hin."]},{"code":401,"indent":3,"parameters":["Bonne chance..."]},{"code":126,"indent":3,"parameters":[39,0,0,1]},{"code":101,"indent":3,"parameters":["",0,0,2]},{"code":401,"indent":3,"parameters":["Vous obtenez la Clef de la Tour Infernale !"]},{"code":123,"indent":3,"parameters":["A",0]},{"code":0,"indent":3,"parameters":[]},{"code":411,"indent":2,"parameters":[]},{"code":101,"indent":3,"parameters":["Evil",3,0,2]},{"code":401,"indent":3,"parameters":["Vous n'avez pas assez d'or..."]},{"code":401,"indent":3,"parameters":["Revenez plus tard, je vous attendrai..."]},{"code":0,"indent":3,"parameters":[]},{"code":412,"indent":2,"parameters":[]},{"code":0,"indent":2,"parameters":[]},{"code":402,"indent":1,"parameters":[1,"Partir"]},{"code":101,"indent":2,"parameters":["Evil",3,0,2]},{"code":401,"indent":2,"parameters":["Vous ratez une si belle occasion..."]},{"code":401,"indent":2,"parameters":["N'hésitez pas à revenir me voir,"]},{"code":401,"indent":2,"parameters":["je vous attendrai..."]},{"code":0,"indent":2,"parameters":[]},{"code":404,"indent":1,"parameters":[]},{"code":0,"indent":1,"parameters":[]},{"code":411,"indent":0,"parameters":[]},{"code":101,"indent":1,"parameters":["Evil",3,0,2]},{"code":401,"indent":1,"parameters":["La zone est en cours d'invocation..."]},{"code":401,"indent":1,"parameters":["Repassez plus tard si vous souhaitez "]},{"code":401,"indent":1,"parameters":["accèder à un immense trésor..."]},{"code":0,"indent":1,"parameters":[]},{"code":412,"indent":0,"parameters":[]},{"code":0,"indent":0,"parameters":[]}],"moveFrequency":3,"moveRoute":{"list":[{"code":0,"parameters":[]}],"repeat":true,"skippable":false,"wait":false},"moveSpeed":3,"moveType":0,"priorityType":1,"stepAnime":false,"through":false,"trigger":0,"walkAnime":true},{"conditions":{"actorId":1,"actorValid":false,"itemId":1,"itemValid":false,"selfSwitchCh":"A","selfSwitchValid":true,"switch1Id":1,"switch1Valid":false,"switch2Id":1,"switch2Valid":false,"variableId":1,"variableValid":false,"variableValue":0},"directionFix":false,"image":{"tileId":0,"characterName":"Evil","direction":2,"pattern":0,"characterIndex":3},"list":[{"code":111,"indent":0,"parameters":[8,39]},{"code":122,"indent":1,"parameters":[4,4,0,3,5,0,0]},{"code":122,"indent":1,"parameters":[5,5,0,3,5,0,1]},{"code":111,"indent":1,"parameters":[1,4,0,10,0]},{"code":111,"indent":2,"parameters":[1,5,0,26,0]},{"code":205,"indent":3,"parameters":[0,{"list":[{"code":2,"indent":null},{"code":16,"indent":null},{"code":0}],"repeat":false,"skippable":false,"wait":true}]},{"code":505,"indent":3,"parameters":[{"code":2,"indent":null}]},{"code":505,"indent":3,"parameters":[{"code":16,"indent":null}]},{"code":0,"indent":3,"parameters":[]},{"code":412,"indent":2,"parameters":[]},{"code":0,"indent":2,"parameters":[]},{"code":412,"indent":1,"parameters":[]},{"code":0,"indent":1,"parameters":[]},{"code":411,"indent":0,"parameters":[]},{"code":123,"indent":1,"parameters":["A",1]},{"code":0,"indent":1,"parameters":[]},{"code":412,"indent":0,"parameters":[]},{"code":0,"indent":0,"parameters":[]}],"moveFrequency":3,"moveRoute":{"list":[{"code":0,"parameters":[]}],"repeat":true,"skippable":false,"wait":false},"moveSpeed":3,"moveType":0,"priorityType":1,"stepAnime":false,"through":false,"trigger":4,"walkAnime":true}],"x":10,"y":26},
{"id":8,"name":"EV008","note":"","pages":[{"conditions":{"actorId":1,"actorValid":false,"itemId":1,"itemValid":false,"selfSwitchCh":"A","selfSwitchValid":false,"switch1Id":1,"switch1Valid":false,"switch2Id":1,"switch2Valid":false,"variableId":1,"variableValid":false,"variableValue":0},"directionFix":true,"image":{"characterIndex":6,"characterName":"","direction":2,"pattern":0,"tileId":0},"list":[{"code":250,"indent":0,"parameters":[{"name":"Chest2","volume":90,"pitch":100,"pan":0}]},{"code":205,"indent":0,"parameters":[0,{"list":[{"code":36},{"code":17},{"code":15,"parameters":[3]},{"code":18},{"code":15,"parameters":[3]},{"code":0}],"repeat":false,"skippable":false,"wait":true}]},{"code":505,"indent":0,"parameters":[{"code":36}]},{"code":505,"indent":0,"parameters":[{"code":17}]},{"code":505,"indent":0,"parameters":[{"code":15,"parameters":[3]}]},{"code":505,"indent":0,"parameters":[{"code":18}]},{"code":505,"indent":0,"parameters":[{"code":15,"parameters":[3]}]},{"code":123,"indent":0,"parameters":["A",0]},{"code":128,"indent":0,"parameters":[9,0,0,1]},{"code":101,"indent":0,"parameters":["",0,0,2]},{"code":401,"indent":0,"parameters":["Vous avez trouvé un Couvercle de tonneau !"]},{"code":0,"indent":0,"parameters":[]}],"moveFrequency":3,"moveRoute":{"list":[{"code":0,"parameters":[]}],"repeat":true,"skippable":false,"wait":false},"moveSpeed":3,"moveType":0,"priorityType":1,"stepAnime":false,"through":false,"trigger":0,"walkAnime":false},{"conditions":{"actorId":1,"actorValid":false,"itemId":1,"itemValid":false,"selfSwitchCh":"A","selfSwitchValid":true,"switch1Id":1,"switch1Valid":false,"switch2Id":1,"switch2Valid":false,"variableId":1,"variableValid":false,"variableValue":0},"directionFix":true,"image":{"characterIndex":6,"characterName":"","direction":8,"pattern":0,"tileId":0},"list":[{"code":0,"indent":0,"parameters":[]}],"moveFrequency":3,"moveRoute":{"list":[{"code":0,"parameters":[]}],"repeat":true,"skippable":false,"wait":false},"moveSpeed":3,"moveType":0,"priorityType":1,"stepAnime":false,"through":false,"trigger":0,"walkAnime":false}],"x":6,"y":31},
{"id":9,"name":"EV009","note":"","pages":[{"conditions":{"actorId":1,"actorValid":false,"itemId":1,"itemValid":false,"selfSwitchCh":"A","selfSwitchValid":false,"switch1Id":1,"switch1Valid":false,"switch2Id":1,"switch2Valid":false,"variableId":1,"variableValid":false,"variableValue":0},"directionFix":false,"image":{"characterIndex":0,"characterName":"","direction":2,"pattern":0,"tileId":0},"list":[{"code":242,"indent":0,"parameters":[5]},{"code":250,"indent":0,"parameters":[{"name":"Fall","volume":30,"pitch":50,"pan":0}]},{"code":201,"indent":0,"parameters":[0,169,20,9,0,0]},{"code":0,"indent":0,"parameters":[]}],"moveFrequency":3,"moveRoute":{"list":[{"code":0,"parameters":[]}],"repeat":true,"skippable":false,"wait":false},"moveSpeed":3,"moveType":0,"priorityType":1,"stepAnime":false,"through":false,"trigger":0,"walkAnime":true}],"x":10,"y":34},
null,
{"id":11,"name":"EV011","note":"","pages":[{"conditions":{"actorId":1,"actorValid":false,"itemId":1,"itemValid":false,"selfSwitchCh":"A","selfSwitchValid":false,"switch1Id":1,"switch1Valid":false,"switch2Id":1,"switch2Valid":false,"variableId":1,"variableValid":false,"variableValue":0},"directionFix":true,"image":{"characterIndex":6,"characterName":"","direction":2,"pattern":0,"tileId":0},"list":[{"code":250,"indent":0,"parameters":[{"name":"Chest2","volume":90,"pitch":100,"pan":0}]},{"code":205,"indent":0,"parameters":[0,{"list":[{"code":36},{"code":17},{"code":15,"parameters":[3]},{"code":18},{"code":15,"parameters":[3]},{"code":0}],"repeat":false,"skippable":false,"wait":true}]},{"code":505,"indent":0,"parameters":[{"code":36}]},{"code":505,"indent":0,"parameters":[{"code":17}]},{"code":505,"indent":0,"parameters":[{"code":15,"parameters":[3]}]},{"code":505,"indent":0,"parameters":[{"code":18}]},{"code":505,"indent":0,"parameters":[{"code":15,"parameters":[3]}]},{"code":123,"indent":0,"parameters":["A",0]},{"code":125,"indent":0,"parameters":[0,0,10]},{"code":101,"indent":0,"parameters":["",0,0,2]},{"code":401,"indent":0,"parameters":["Vous avez trouvé 10 \\G !"]},{"code":0,"indent":0,"parameters":[]}],"moveFrequency":3,"moveRoute":{"list":[{"code":0,"parameters":[]}],"repeat":true,"skippable":false,"wait":false},"moveSpeed":3,"moveType":0,"priorityType":1,"stepAnime":false,"through":false,"trigger":0,"walkAnime":false},{"conditions":{"actorId":1,"actorValid":false,"itemId":1,"itemValid":false,"selfSwitchCh":"A","selfSwitchValid":true,"switch1Id":1,"switch1Valid":false,"switch2Id":1,"switch2Valid":false,"variableId":1,"variableValid":false,"variableValue":0},"directionFix":true,"image":{"characterIndex":6,"characterName":"","direction":8,"pattern":0,"tileId":0},"list":[{"code":0,"indent":0,"parameters":[]}],"moveFrequency":3,"moveRoute":{"list":[{"code":0,"parameters":[]}],"repeat":true,"skippable":false,"wait":false},"moveSpeed":3,"moveType":0,"priorityType":1,"stepAnime":false,"through":false,"trigger":0,"walkAnime":false}],"x":7,"y":31},
{"id":12,"name":"EV012","note":"","pages":[{"conditions":{"actorId":1,"actorValid":false,"itemId":1,"itemValid":false,"selfSwitchCh":"A","selfSwitchValid":false,"switch1Id":1,"switch1Valid":false,"switch2Id":1,"switch2Valid":false,"variableId":1,"variableValid":false,"variableValue":0},"directionFix":false,"image":{"characterIndex":2,"characterName":"!Door1","direction":2,"pattern":0,"tileId":0},"list":[{"code":250,"indent":0,"parameters":[{"name":"Open1","pan":0,"pitch":100,"volume":90}]},{"code":205,"indent":0,"parameters":[0,{"list":[{"code":17},{"code":15,"parameters":[3]},{"code":18},{"code":15,"parameters":[3]},{"code":19},{"code":37},{"code":0}],"repeat":false,"skippable":false,"wait":true}]},{"code":505,"indent":0,"parameters":[{"code":17}]},{"code":505,"indent":0,"parameters":[{"code":15,"parameters":[3]}]},{"code":505,"indent":0,"parameters":[{"code":18}]},{"code":505,"indent":0,"parameters":[{"code":15,"parameters":[3]}]},{"code":505,"indent":0,"parameters":[{"code":19}]},{"code":505,"indent":0,"parameters":[{"code":37}]},{"code":205,"indent":0,"parameters":[-1,{"list":[{"code":12},{"code":0}],"repeat":false,"skippable":true,"wait":true}]},{"code":505,"indent":0,"parameters":[{"code":12}]},{"code":250,"indent":0,"parameters":[{"name":"Move1","pan":0,"pitch":100,"volume":90}]},{"code":201,"indent":0,"parameters":[0,160,2,4,0,0]},{"code":0,"indent":0,"parameters":[]}],"moveFrequency":3,"moveRoute":{"list":[{"code":0,"parameters":[]}],"repeat":true,"skippable":false,"wait":false},"moveSpeed":3,"moveType":0,"priorityType":1,"stepAnime":false,"through":false,"trigger":1,"walkAnime":false}],"x":16,"y":31},
{"id":13,"name":"EV013","note":"","pages":[{"conditions":{"actorId":1,"actorValid":false,"itemId":1,"itemValid":false,"selfSwitchCh":"A","selfSwitchValid":false,"switch1Id":1,"switch1Valid":false,"switch2Id":1,"switch2Valid":false,"variableId":1,"variableValid":false,"variableValue":0},"directionFix":false,"image":{"characterIndex":2,"characterName":"!Door1","direction":2,"pattern":0,"tileId":0},"list":[{"code":250,"indent":0,"parameters":[{"name":"Open1","pan":0,"pitch":100,"volume":90}]},{"code":205,"indent":0,"parameters":[0,{"list":[{"code":17},{"code":15,"parameters":[3]},{"code":18},{"code":15,"parameters":[3]},{"code":19},{"code":37},{"code":0}],"repeat":false,"skippable":false,"wait":true}]},{"code":505,"indent":0,"parameters":[{"code":17}]},{"code":505,"indent":0,"parameters":[{"code":15,"parameters":[3]}]},{"code":505,"indent":0,"parameters":[{"code":18}]},{"code":505,"indent":0,"parameters":[{"code":15,"parameters":[3]}]},{"code":505,"indent":0,"parameters":[{"code":19}]},{"code":505,"indent":0,"parameters":[{"code":37}]},{"code":205,"indent":0,"parameters":[-1,{"list":[{"code":12},{"code":0}],"repeat":false,"skippable":true,"wait":true}]},{"code":505,"indent":0,"parameters":[{"code":12}]},{"code":250,"indent":0,"parameters":[{"name":"Move1","pan":0,"pitch":100,"volume":90}]},{"code":201,"indent":0,"parameters":[0,161,13,8,0,0]},{"code":0,"indent":0,"parameters":[]}],"moveFrequency":3,"moveRoute":{"list":[{"code":0,"parameters":[]}],"repeat":true,"skippable":false,"wait":false},"moveSpeed":3,"moveType":0,"priorityType":1,"stepAnime":false,"through":false,"trigger":1,"walkAnime":false}],"x":4,"y":30},
{"id":14,"name":"EV014","note":"","pages":[{"conditions":{"actorId":1,"actorValid":false,"itemId":1,"itemValid":false,"selfSwitchCh":"A","selfSwitchValid":false,"switch1Id":1,"switch1Valid":false,"switch2Id":1,"switch2Valid":false,"variableId":1,"variableValid":false,"variableValue":0},"directionFix":false,"image":{"characterIndex":0,"characterName":"!$Gate2","direction":2,"pattern":0,"tileId":0},"list":[{"code":111,"indent":0,"parameters":[8,39]},{"code":126,"indent":1,"parameters":[39,1,0,1]},{"code":101,"indent":1,"parameters":["",0,0,2]},{"code":401,"indent":1,"parameters":["Vous perdez une Clef de la Tour Infernale."]},{"code":250,"indent":1,"parameters":[{"name":"Open1","pan":0,"pitch":100,"volume":90}]},{"code":205,"indent":1,"parameters":[0,{"list":[{"code":17},{"code":15,"parameters":[3]},{"code":18},{"code":15,"parameters":[3]},{"code":19},{"code":37},{"code":0}],"repeat":false,"skippable":false,"wait":true}]},{"code":505,"indent":1,"parameters":[{"code":17}]},{"code":505,"indent":1,"parameters":[{"code":15,"parameters":[3]}]},{"code":505,"indent":1,"parameters":[{"code":18}]},{"code":505,"indent":1,"parameters":[{"code":15,"parameters":[3]}]},{"code":505,"indent":1,"parameters":[{"code":19}]},{"code":505,"indent":1,"parameters":[{"code":37}]},{"code":205,"indent":1,"parameters":[-1,{"list":[{"code":12},{"code":0}],"repeat":false,"skippable":true,"wait":true}]},{"code":505,"indent":1,"parameters":[{"code":12}]},{"code":250,"indent":1,"parameters":[{"name":"Move1","pan":0,"pitch":100,"volume":90}]},{"code":201,"indent":1,"parameters":[0,162,8,19,0,0]},{"code":0,"indent":1,"parameters":[]},{"code":412,"indent":0,"parameters":[]},{"code":0,"indent":0,"parameters":[]}],"moveFrequency":3,"moveRoute":{"list":[{"code":0,"parameters":[]}],"repeat":true,"skippable":false,"wait":false},"moveSpeed":3,"moveType":0,"priorityType":1,"stepAnime":false,"through":false,"trigger":1,"walkAnime":false}],"x":10,"y":4},
{"id":15,"name":"EV015","note":"","pages":[{"conditions":{"actorId":1,"actorValid":false,"itemId":1,"itemValid":false,"selfSwitchCh":"A","selfSwitchValid":false,"switch1Id":1,"switch1Valid":false,"switch2Id":1,"switch2Valid":false,"variableId":1,"variableValid":false,"variableValue":0},"directionFix":false,"image":{"characterIndex":0,"characterName":"","direction":2,"pattern":0,"tileId":0},"list":[{"code":241,"indent":0,"parameters":[{"name":"Theme2","volume":90,"pitch":100,"pan":0}]},{"code":223,"indent":0,"parameters":[[-150,-150,-150,255],60,true]},{"code":105,"indent":0,"parameters":[2,false]},{"code":405,"indent":0,"parameters":["\\{CREDITS :\\}"]},{"code":405,"indent":0,"parameters":[""]},{"code":405,"indent":0,"parameters":["Idées et réalisation :"]},{"code":405,"indent":0,"parameters":["Jérémy Duval"]},{"code":405,"indent":0,"parameters":[""]},{"code":405,"indent":0,"parameters":["Remerciements :"]},{"code":405,"indent":0,"parameters":["Kiliann"]},{"code":405,"indent":0,"parameters":["Quentin"]},{"code":405,"indent":0,"parameters":["Collyne"]},{"code":405,"indent":0,"parameters":["Emma"]},{"code":405,"indent":0,"parameters":[""]},{"code":405,"indent":0,"parameters":["Vous pouvez me retrouver sur Instagram :"]},{"code":405,"indent":0,"parameters":["nawe_hobbies"]},{"code":405,"indent":0,"parameters":[""]},{"code":405,"indent":0,"parameters":[""]},{"code":405,"indent":0,"parameters":[""]},{"code":405,"indent":0,"parameters":[""]},{"code":405,"indent":0,"parameters":[""]},{"code":405,"indent":0,"parameters":[""]},{"code":405,"indent":0,"parameters":[""]},{"code":405,"indent":0,"parameters":[""]},{"code":405,"indent":0,"parameters":[""]},{"code":405,"indent":0,"parameters":[""]},{"code":405,"indent":0,"parameters":[""]},{"code":405,"indent":0,"parameters":["\\{Merci à vous d'avoir joué !\\}"]},{"code":223,"indent":0,"parameters":[[0,0,0,0],60,true]},{"code":241,"indent":0,"parameters":[{"name":"Town2","volume":90,"pitch":100,"pan":0}]},{"code":0,"indent":0,"parameters":[]}],"moveFrequency":3,"moveRoute":{"list":[{"code":0,"parameters":[]}],"repeat":true,"skippable":false,"wait":false},"moveSpeed":3,"moveType":0,"priorityType":1,"stepAnime":false,"through":false,"trigger":0,"walkAnime":true}],"x":10,"y":38}
]
}