{
"autoplayBgm":true,"autoplayBgs":false,"battleback1Name":"DarkSpace","battleback2Name":"DarkSpace","bgm":{"name":"Dungeon3","pan":0,"pitch":100,"volume":90},"bgs":{"name":"","pan":0,"pitch":100,"volume":90},"disableDashing":false,"displayName":"Tour Infernale (E2)","encounterList":[],"encounterStep":30,"height":21,"note":"","parallaxLoopX":false,"parallaxLoopY":false,"parallaxName":"","parallaxShow":true,"parallaxSx":0,"parallaxSy":0,"scrollType":0,"specifyBattleback":true,"tilesetId":4,"width":17,
"data":[7139,7138,7138,7138,7138,7138,7138,7138,7138,7138,7138,7138,7138,7138,7138,7138,7142,7137,7136,7136,7136,7136,7136,7136,7136,7136,7136,7136,7136,7136,7136,7136,7136,7140,7137,7136,7136,7136,7136,7136,7136,7136,7136,7136,7136,7136,7136,7136,7136,7136,7140,7137,7136,7136,7136,7136,7136,7136,7136,7136,7136,7136,7136,7136,7136,7136,7136,7140,7145,7144,7144,7144,7144,7144,7144,7144,7144,7144,7144,7144,7144,7144,7144,7144,7148,1662,1662,1662,1662,1663,1662,1662,1662,1662,1663,1662,1662,1662,1662,1662,1662,1662,1536,1536,1536,1536,1536,1536,1536,1536,1536,1536,1536,1536,1536,1536,1536,1536,1536,1536,1536,1536,1536,1536,1536,1536,1536,1536,1536,1536,1536,1536,1536,1536,1536,1536,1536,1536,1536,1536,1662,1662,1662,1662,1662,1663,1662,1662,1662,1536,1536,1536,1536,1536,1536,1536,1536,1662,1662,1662,1662,1662,1662,1662,1662,1662,1536,1536,1536,1536,1536,1536,1536,1536,1662,1662,1663,1662,1662,1662,1662,1662,1662,1536,1536,1536,1536,1536,1536,1536,1536,1662,1662,1662,1662,1662,1662,1662,1663,1662,1536,1536,1536,1536,1536,1536,1536,1536,1662,1662,1662,1662,1654,1662,1662,1663,1662,1536,1536,1536,1536,1536,1536,1536,1536,1662,1662,1662,1662,1662,1662,1662,1662,1663,1536,1536,1536,1536,1536,1536,1536,1536,1662,1663,1662,1662,1662,1662,1662,1662,1662,1536,1536,1536,1536,1536,1536,1536,1536,1662,1662,1663,1662,1662,1662,1662,1662,1662,1536,1536,1536,1536,1536,1536,1536,1536,1662,1662,1662,1662,1662,1662,1662,1662,1662,1536,1536,1536,1536,1536,1536,1536,1536,1536,1536,1536,1536,1536,1536,1536,1536,1536,1536,1536,1536,1536,1536,1536,1536,1536,1536,1536,1536,1536,1536,1536,1536,1536,1536,1536,1536,1536,1536,1662,1662,1663,1662,1662,1662,1662,1662,1662,1662,1662,1662,1662,1662,1662,1662,1662,0,0,0,0,0,0,0,0,0,0,0,0,0,0,0,0,0,0,0,0,0,0,0,0,0,0,0,0,0,0,0,0,0,0,0,0,0,0,0,0,0,0,0,0,0,0,0,0,0,0,0,0,0,0,0,0,0,0,0,0,0,0,0,0,0,0,0,0,0,0,0,0,0,0,0,0,0,0,0,0,0,0,0,0,0,0,0,0,0,0,0,0,0,0,0,0,0,0,0,0,0,0,0,0,0,0,0,0,0,0,0,0,0,0,0,0,0,0,0,0,0,0,0,0,0,0,0,0,0,0,0,0,0,0,0,0,0,0,0,0,0,0,0,0,0,0,0,0,0,0,0,0,0,0,0,0,0,0,0,0,0,0,0,0,0,0,0,0,0,0,0,0,0,0,0,0,0,0,0,0,0,0,0,0,0,0,0,0,0,0,0,0,0,0,0,0,0,0,0,0,0,0,0,0,0,0,0,0,0,0,0,0,0,0,0,0,0,0,0,0,0,0,0,0,0,0,0,0,0,0,0,0,0,0,0,0,0,0,0,0,0,0,0,0,0,0,0,0,0,0,0,0,0,0,0,0,0,0,0,0,0,0,0,0,0,0,0,0,0,0,0,0,0,0,0,0,0,0,0,0,0,0,0,0,0,0,0,0,0,0,0,0,0,0,0,0,0,0,0,0,0,0,0,0,0,0,0,0,0,0,0,0,0,0,0,0,0,0,0,0,0,0,0,0,0,0,0,0,0,0,0,0,0,0,0,0,0,0,0,0,0,0,0,0,0,0,0,0,0,0,0,0,0,0,0,0,0,0,0,0,0,0,0,0,0,0,0,0,0,0,0,0,0,0,0,0,0,0,0,0,0,0,0,0,0,0,0,0,0,0,0,0,0,0,0,0,0,0,0,0,0,0,0,0,0,0,0,0,0,0,0,0,0,0,0,0,0,0,0,0,0,0,0,0,0,0,0,0,0,0,0,0,0,0,0,0,0,0,0,0,0,0,0,0,0,0,0,0,0,0,0,0,0,0,0,0,0,0,0,0,0,0,0,0,0,0,0,0,0,0,0,0,0,0,0,0,0,0,0,0,0,0,0,0,0,0,0,0,0,0,0,0,0,0,0,0,0,0,0,0,0,0,0,0,0,0,0,0,0,0,0,0,0,0,0,0,0,0,0,0,0,0,0,0,0,0,0,0,0,0,0,0,0,0,0,0,0,0,0,0,0,0,0,0,0,0,0,0,0,0,0,0,0,0,0,0,0,0,0,0,0,0,0,0,0,0,0,0,0,0,0,0,0,0,0,0,0,0,0,0,0,0,0,0,0,0,0,0,0,0,0,0,0,0,0,0,0,0,0,0,0,0,0,0,0,0,0,0,0,0,0,0,0,0,0,0,0,0,0,0,0,0,0,0,0,0,0,0,0,0,0,0,0,0,0,0,0,0,0,0,0,0,0,0,0,0,0,0,0,0,0,0,0,0,0,0,0,0,0,0,0,0,0,0,0,0,0,0,0,0,0,0,0,0,0,0,0,0,0,0,0,0,0,0,0,0,0,0,0,0,0,0,0,0,0,0,0,0,0,0,0,0,0,0,0,0,0,0,0,0,0,0,0,0,0,0,0,0,0,0,0,0,0,0,0,0,0,0,0,0,0,0,0,0,0,0,0,0,0,0,0,0,0,0,0,0,0,0,0,0,0,0,0,0,0,0,0,0,0,0,0,0,0,0,0,0,0,0,0,0,0,0,0,0,0,0,0,0,0,0,0,0,0,0,0,0,0,0,0,0,0,0,0,0,0,0,0,0,0,0,0,0,0,0,0,0,0,147,0,0,0,0,0,0,0,0,0,0,0,0,0,0,0,0,0,0,0,0,0,0,0,0,0,0,0,0,0,0,0,0,0,36,0,0,0,0,0,0,0,0,0,0,0,0,0,0,0,0,36,0,0,0,0,0,0,0,0,0,0,0,0,0,86,0,0,0,0,0,86,0,0,0,0,0,0,0,0,0,0,94,0,0,0,0,0,94,0,0,0,0,0,0,0,0,0,0,0,0,0,0,0,0,0,0,0,0,0,0,0,0,0,0,0,0,0,0,0,0,0,0,0,0,0,0,0,0,0,0,0,0,0,0,0,0,0,0,0,0,0,0,0,0,0,0,0,0,0,0,0,0,0,0,0,0,0,0,0,0,0,0,0,0,0,0,86,0,0,0,0,0,86,0,0,0,0,0,0,0,0,0,0,94,0,0,0,0,0,94,0,0,0,0,0,0,0,0,0,0,0,0,0,0,0,0,0,0,0,0,0,0,0,0,0,0,0,0,0,0,36,0,0,0,0,0,0,0,0,0,0,0,0,0,0,0,0,36,0,0,0,0,0,0,0,0,0,0,0,0,0,0,0,0,0,0,0,0,0,0,0,0,0,0,0,0,0,0,0,0,0,0,0,0,0,0,0,0,0,0,0,0,0,0,0,0,0,0,0,0,0,0,0,0,0,0,0,0,0,0,0,0,0,0,0,0,0,0,0,0,0,0,0,0,0,0,0,0,0,0,0,0,0,0,0,0,0,0,0,0,0,0,0,0,0,0,0,0,0,0,0,0,0,0,0,0,0,0,0,0,0,0,0,0,0,0,0,0,0,0,0,0,0,0,0,0,0,0,0,0,0,0,0,0,0,0,0,0,0,0,0,0,0,0,0,0,0,0,0,0,0,0,0,0,0,0,0,0,0,0,0,0,0,0,0,0,0,0,0,0,0,0,0,0,0,0,0,0,0,0,0,0,0,0,0,0,0,0,0,0,0,0,0,0,0,0,0,0,0,0,0,0,0,0,0,0,0,0,0,0,0,0,0,0,0,0,0,0,0,0,0,0,0,0,0,0,0,0,0,0,0,0,0,0,0,0,0,0,0,0,0,0,0,0,0,0,0,0,0,0,0,0,0,0,0,0,0,0,0,0,0,0,0,0,0,0,0,0,0,0,0,0,0,0,0,0,0,0,0,0,0,0,0,0,0,0,0,0,0,0,0,0,0,0,0,0,0,0,0,0,0,0,0,0,0,0,0,0,0,0,0,0,0,0,0,0,0,0,0,0,0,0,0,0,0,0,0,0,0,0,0,0,0,0,0,0,0,0,0,0,0,0,0,0,0,0,0,0,0,0,0,0,0,0,0,0,0,0,0,0,0,0,0,0,0,0,0,0,0,0,0,0,0,0,0,0,0,0,0,0,0,0,0,0,0,0,0,0,0,0,0,0,0,0,0,0,0,0,0,0,0,0,0,0,0,0,0,0,0,0,0,0,0,0,0,0,0,0,0,0,0,0,0,0,0,0,0,0,0,0,0,0,0,0,0,0,0,0,0,0,0,0,0,0,0,0,0,0,0,0,0,0,0,0,0,0,0,0,0,0,0,0,0,0,0,0,0,0,0,0,0,0,0,0,0,0,0,0,0,0,0,0,0,0,0,0,0,0,0,0,0,0,0,0,0,0,0,0,0,0,0,0,0,0,0,0,0,0,0,0,0,0,0,0,0,0,0,0,0,0,0,0,0,0,0,0,0,0,0,0,0,0,0,0,0,0,0,0,0,0,0,0,0,0,0,0,0,0,0,0,0,0,0,0,0,0,0,0,0,0,0,0,0,0,0,0,0,0,0,0,0,0,0,0,0,0,0,0,0,0,0,0,0,0,0,0,0,0,0,0,0,0,0,0,0,0,0,0,0,0,0,0,0,0,0,0,0,0,0,0,0,0,0,0,0,0,0,0,0,0,0,0,0,0,0,0,0,0,0,0,0,0,0,0,0,0,0,0,0,0,0,0,0,0,0,0,0,0,0,0,0,0,0,0,0,0,0,0,0,0,0,0,0,0,0,0,0,0,0,0,0,0,0,0,0,0,0,0,0,0,0,0,0,0,0,0,0,0,0,0,0,0,0,0,0,0,0,0,0,0,0,0,0,0,0,0,0,0,0,0,0,0,0,0,0,0,0,0,0,0,0,0,0,0,0,0,0,0,0,0,0,0,0,0,0,0,0,0,0,0,0,0,0,0,0,0,0,0,0,0,0,0,0,0],
"events":[
null,
{"id":1,"name":"BOSS1","note":"","pages":[{"conditions":{"actorId":1,"actorValid":false,"itemId":1,"itemValid":false,"selfSwitchCh":"A","selfSwitchValid":false,"switch1Id":1,"switch1Valid":false,"switch2Id":1,"switch2Valid":false,"variableId":1,"variableValid":false,"variableValue":0},"directionFix":false,"image":{"tileId":0,"characterName":"Evil","direction":2,"pattern":1,"characterIndex":6},"list":[{"code":121,"indent":0,"parameters":[1,1,1]},{"code":121,"indent":0,"parameters":[4,4,1]},{"code":121,"indent":0,"parameters":[8,8,1]},{"code":217,"indent":0,"parameters":[]},{"code":101,"indent":0,"parameters":["Evil",6,0,2]},{"code":401,"indent":0,"parameters":["Bonjour jeunes gens... \\|"]},{"code":401,"indent":0,"parameters":["Vous venez m'affronter ? \\|"]},{"code":401,"indent":0,"parameters":["Ou plutôt... \\|"]},{"code":121,"indent":0,"parameters":[1,1,0]},{"code":250,"indent":0,"parameters":[{"name":"Monster2","volume":90,"pitch":100,"pan":0}]},{"code":225,"indent":0,"parameters":[5,9,60,false]},{"code":101,"indent":0,"parameters":["Evil",5,0,2]},{"code":401,"indent":0,"parameters":["NOUS AFFRONTER !!!"]},{"code":132,"indent":0,"parameters":[{"name":"Battle3","volume":90,"pitch":100,"pan":0}]},{"code":301,"indent":0,"parameters":[0,87,false,true]},{"code":601,"indent":0,"parameters":[]},{"code":121,"indent":1,"parameters":[8,8,0]},{"code":121,"indent":1,"parameters":[4,4,0]},{"code":0,"indent":1,"parameters":[]},{"code":603,"indent":0,"parameters":[]},{"code":101,"indent":1,"parameters":["Evil",6,0,2]},{"code":401,"indent":1,"parameters":["Bonne nuit..."]},{"code":101,"indent":1,"parameters":["Evil",5,0,2]},{"code":401,"indent":1,"parameters":["HAHAHA !!!"]},{"code":223,"indent":1,"parameters":[[-150,-150,-150,255],60,true]},{"code":111,"indent":1,"parameters":[7,1,0]},{"code":101,"indent":2,"parameters":["Meuhxime",0,0,2]},{"code":401,"indent":2,"parameters":["Quel dommage..."]},{"code":101,"indent":2,"parameters":["Meuhrentin",0,0,2]},{"code":401,"indent":2,"parameters":["Oui, encore plus d'argent pour nous..."]},{"code":111,"indent":2,"parameters":[7,100,0]},{"code":125,"indent":3,"parameters":[1,0,100]},{"code":101,"indent":3,"parameters":["",0,0,2]},{"code":401,"indent":3,"parameters":["Vous perdez 100\\G."]},{"code":0,"indent":3,"parameters":[]},{"code":411,"indent":2,"parameters":[]},{"code":122,"indent":3,"parameters":[9,9,0,3,7,2,0]},{"code":125,"indent":3,"parameters":[1,1,9]},{"code":101,"indent":3,"parameters":["",0,0,2]},{"code":401,"indent":3,"parameters":["Vous perdez \\V[0009]\\G."]},{"code":0,"indent":3,"parameters":[]},{"code":412,"indent":2,"parameters":[]},{"code":0,"indent":2,"parameters":[]},{"code":411,"indent":1,"parameters":[]},{"code":101,"indent":2,"parameters":["Meuhxime",0,0,2]},{"code":401,"indent":2,"parameters":["Quel dommage..."]},{"code":101,"indent":2,"parameters":["Meuhrentin",0,0,2]},{"code":401,"indent":2,"parameters":["Ils n'ont même plus d'or à nous laisser..."]},{"code":0,"indent":2,"parameters":[]},{"code":412,"indent":1,"parameters":[]},{"code":201,"indent":1,"parameters":[0,159,10,27,0,0]},{"code":223,"indent":1,"parameters":[[0,0,0,0],60,true]},{"code":0,"indent":1,"parameters":[]},{"code":604,"indent":0,"parameters":[]},{"code":132,"indent":0,"parameters":[{"name":"Battle1","volume":90,"pitch":100,"pan":0}]},{"code":0,"indent":0,"parameters":[]}],"moveFrequency":1,"moveRoute":{"list":[{"code":0,"parameters":[]}],"repeat":true,"skippable":false,"wait":false},"moveSpeed":3,"moveType":0,"priorityType":1,"stepAnime":false,"through":false,"trigger":0,"walkAnime":true},{"conditions":{"actorId":1,"actorValid":false,"itemId":1,"itemValid":false,"selfSwitchCh":"A","selfSwitchValid":false,"switch1Id":4,"switch1Valid":true,"switch2Id":1,"switch2Valid":false,"variableId":1,"variableValid":false,"variableValue":0},"directionFix":false,"image":{"tileId":0,"characterName":"Damage2","direction":4,"pattern":1,"characterIndex":1},"list":[{"code":225,"indent":0,"parameters":[5,9,60,false]},{"code":101,"indent":0,"parameters":["Evil",6,0,2]},{"code":401,"indent":0,"parameters":["HIIIIARGH !!!"]},{"code":101,"indent":0,"parameters":["Evil",5,0,2]},{"code":401,"indent":0,"parameters":["Argh..."]},{"code":205,"indent":0,"parameters":[0,{"list":[{"code":42,"parameters":[240],"indent":null},{"code":15,"parameters":[10],"indent":null},{"code":42,"parameters":[220],"indent":null},{"code":15,"parameters":[10],"indent":0},{"code":42,"parameters":[200],"indent":null},{"code":42,"parameters":[180],"indent":null},{"code":15,"parameters":[10],"indent":0},{"code":42,"parameters":[160],"indent":null},{"code":15,"parameters":[10],"indent":0},{"code":42,"parameters":[140],"indent":null},{"code":15,"parameters":[10],"indent":0},{"code":42,"parameters":[120],"indent":null},{"code":15,"parameters":[10],"indent":0},{"code":42,"parameters":[100],"indent":null},{"code":15,"parameters":[10],"indent":0},{"code":42,"parameters":[80],"indent":null},{"code":15,"parameters":[10],"indent":0},{"code":42,"parameters":[60],"indent":null},{"code":15,"parameters":[10],"indent":0},{"code":42,"parameters":[40],"indent":null},{"code":15,"parameters":[10],"indent":0},{"code":42,"parameters":[20],"indent":null},{"code":15,"parameters":[10],"indent":0},{"code":42,"parameters":[0],"indent":null},{"code":0}],"repeat":false,"skippable":false,"wait":false}]},{"code":505,"indent":0,"parameters":[{"code":42,"parameters":[240],"indent":null}]},{"code":505,"indent":0,"parameters":[{"code":15,"parameters":[10],"indent":null}]},{"code":505,"indent":0,"parameters":[{"code":42,"parameters":[220],"indent":null}]},{"code":505,"indent":0,"parameters":[{"code":15,"parameters":[10],"indent":0}]},{"code":505,"indent":0,"parameters":[{"code":42,"parameters":[200],"indent":null}]},{"code":505,"indent":0,"parameters":[{"code":42,"parameters":[180],"indent":null}]},{"code":505,"indent":0,"parameters":[{"code":15,"parameters":[10],"indent":0}]},{"code":505,"indent":0,"parameters":[{"code":42,"parameters":[160],"indent":null}]},{"code":505,"indent":0,"parameters":[{"code":15,"parameters":[10],"indent":0}]},{"code":505,"indent":0,"parameters":[{"code":42,"parameters":[140],"indent":null}]},{"code":505,"indent":0,"parameters":[{"code":15,"parameters":[10],"indent":0}]},{"code":505,"indent":0,"parameters":[{"code":42,"parameters":[120],"indent":null}]},{"code":505,"indent":0,"parameters":[{"code":15,"parameters":[10],"indent":0}]},{"code":505,"indent":0,"parameters":[{"code":42,"parameters":[100],"indent":null}]},{"code":505,"indent":0,"parameters":[{"code":15,"parameters":[10],"indent":0}]},{"code":505,"indent":0,"parameters":[{"code":42,"parameters":[80],"indent":null}]},{"code":505,"indent":0,"parameters":[{"code":15,"parameters":[10],"indent":0}]},{"code":505,"indent":0,"parameters":[{"code":42,"parameters":[60],"indent":null}]},{"code":505,"indent":0,"parameters":[{"code":15,"parameters":[10],"indent":0}]},{"code":505,"indent":0,"parameters":[{"code":42,"parameters":[40],"indent":null}]},{"code":505,"indent":0,"parameters":[{"code":15,"parameters":[10],"indent":0}]},{"code":505,"indent":0,"parameters":[{"code":42,"parameters":[20],"indent":null}]},{"code":505,"indent":0,"parameters":[{"code":15,"parameters":[10],"indent":0}]},{"code":505,"indent":0,"parameters":[{"code":42,"parameters":[0],"indent":null}]},{"code":205,"indent":0,"parameters":[7,{"list":[{"code":42,"parameters":[240],"indent":null},{"code":15,"parameters":[10],"indent":null},{"code":42,"parameters":[220],"indent":null},{"code":15,"parameters":[10],"indent":0},{"code":42,"parameters":[200],"indent":null},{"code":42,"parameters":[180],"indent":null},{"code":15,"parameters":[10],"indent":0},{"code":42,"parameters":[160],"indent":null},{"code":15,"parameters":[10],"indent":0},{"code":42,"parameters":[140],"indent":null},{"code":15,"parameters":[10],"indent":0},{"code":42,"parameters":[120],"indent":null},{"code":15,"parameters":[10],"indent":0},{"code":42,"parameters":[100],"indent":null},{"code":15,"parameters":[10],"indent":0},{"code":42,"parameters":[80],"indent":null},{"code":15,"parameters":[10],"indent":0},{"code":42,"parameters":[60],"indent":null},{"code":15,"parameters":[10],"indent":0},{"code":42,"parameters":[40],"indent":null},{"code":15,"parameters":[10],"indent":0},{"code":42,"parameters":[20],"indent":null},{"code":15,"parameters":[10],"indent":0},{"code":42,"parameters":[0],"indent":null},{"code":0}],"repeat":false,"skippable":false,"wait":true}]},{"code":505,"indent":0,"parameters":[{"code":42,"parameters":[240],"indent":null}]},{"code":505,"indent":0,"parameters":[{"code":15,"parameters":[10],"indent":null}]},{"code":505,"indent":0,"parameters":[{"code":42,"parameters":[220],"indent":null}]},{"code":505,"indent":0,"parameters":[{"code":15,"parameters":[10],"indent":0}]},{"code":505,"indent":0,"parameters":[{"code":42,"parameters":[200],"indent":null}]},{"code":505,"indent":0,"parameters":[{"code":42,"parameters":[180],"indent":null}]},{"code":505,"indent":0,"parameters":[{"code":15,"parameters":[10],"indent":0}]},{"code":505,"indent":0,"parameters":[{"code":42,"parameters":[160],"indent":null}]},{"code":505,"indent":0,"parameters":[{"code":15,"parameters":[10],"indent":0}]},{"code":505,"indent":0,"parameters":[{"code":42,"parameters":[140],"indent":null}]},{"code":505,"indent":0,"parameters":[{"code":15,"parameters":[10],"indent":0}]},{"code":505,"indent":0,"parameters":[{"code":42,"parameters":[120],"indent":null}]},{"code":505,"indent":0,"parameters":[{"code":15,"parameters":[10],"indent":0}]},{"code":505,"indent":0,"parameters":[{"code":42,"parameters":[100],"indent":null}]},{"code":505,"indent":0,"parameters":[{"code":15,"parameters":[10],"indent":0}]},{"code":505,"indent":0,"parameters":[{"code":42,"parameters":[80],"indent":null}]},{"code":505,"indent":0,"parameters":[{"code":15,"parameters":[10],"indent":0}]},{"code":505,"indent":0,"parameters":[{"code":42,"parameters":[60],"indent":null}]},{"code":505,"indent":0,"parameters":[{"code":15,"parameters":[10],"indent":0}]},{"code":505,"indent":0,"parameters":[{"code":42,"parameters":[40],"indent":null}]},{"code":505,"indent":0,"parameters":[{"code":15,"parameters":[10],"indent":0}]},{"code":505,"indent":0,"parameters":[{"code":42,"parameters":[20],"indent":null}]},{"code":505,"indent":0,"parameters":[{"code":15,"parameters":[10],"indent":0}]},{"code":505,"indent":0,"parameters":[{"code":42,"parameters":[0],"indent":null}]},{"code":121,"indent":0,"parameters":[1,1,1]},{"code":121,"indent":0,"parameters":[4,4,1]},{"code":121,"indent":0,"parameters":[13,13,1]},{"code":121,"indent":0,"parameters":[111,111,0]},{"code":121,"indent":0,"parameters":[8,8,1]},{"code":214,"indent":0,"parameters":[]},{"code":0,"indent":0,"parameters":[]}],"moveFrequency":3,"moveRoute":{"list":[{"code":0,"parameters":[]}],"repeat":true,"skippable":false,"wait":false},"moveSpeed":3,"moveType":0,"priorityType":1,"stepAnime":false,"through":false,"trigger":3,"walkAnime":true}],"x":8,"y":11},
{"id":2,"name":"EV002","note":"","pages":[{"conditions":{"actorId":1,"actorValid":false,"itemId":1,"itemValid":false,"selfSwitchCh":"A","selfSwitchValid":false,"switch1Id":13,"switch1Valid":true,"switch2Id":1,"switch2Valid":false,"variableId":1,"variableValid":false,"variableValue":0},"directionFix":false,"image":{"tileId":0,"characterName":"!Flame","direction":2,"pattern":0,"characterIndex":5},"list":[{"code":0,"indent":0,"parameters":[]}],"moveFrequency":2,"moveRoute":{"list":[{"code":0,"parameters":[]}],"repeat":true,"skippable":false,"wait":false},"moveSpeed":3,"moveType":0,"priorityType":1,"stepAnime":true,"through":false,"trigger":4,"walkAnime":true}],"x":8,"y":7},
{"id":3,"name":"EV003","note":"","pages":[{"conditions":{"actorId":1,"actorValid":false,"itemId":1,"itemValid":false,"selfSwitchCh":"A","selfSwitchValid":false,"switch1Id":13,"switch1Valid":true,"switch2Id":1,"switch2Valid":false,"variableId":1,"variableValid":false,"variableValue":0},"directionFix":false,"image":{"tileId":0,"characterName":"!Flame","direction":2,"pattern":0,"characterIndex":5},"list":[{"code":0,"indent":0,"parameters":[]}],"moveFrequency":2,"moveRoute":{"list":[{"code":0,"parameters":[]}],"repeat":true,"skippable":false,"wait":false},"moveSpeed":3,"moveType":0,"priorityType":1,"stepAnime":true,"through":false,"trigger":4,"walkAnime":true}],"x":8,"y":17},
{"id":4,"name":"EV004","note":"","pages":[{"conditions":{"actorId":1,"actorValid":false,"itemId":1,"itemValid":false,"selfSwitchCh":"A","selfSwitchValid":false,"switch1Id":13,"switch1Valid":false,"switch2Id":1,"switch2Valid":false,"variableId":1,"variableValid":false,"variableValue":0},"directionFix":false,"image":{"characterIndex":0,"characterName":"","direction":2,"pattern":0,"tileId":0},"list":[{"code":111,"indent":0,"parameters":[8,36]},{"code":214,"indent":1,"parameters":[]},{"code":0,"indent":1,"parameters":[]},{"code":411,"indent":0,"parameters":[]},{"code":205,"indent":1,"parameters":[0,{"list":[{"code":37,"indent":null},{"code":0}],"repeat":false,"skippable":false,"wait":true}]},{"code":505,"indent":1,"parameters":[{"code":37,"indent":null}]},{"code":205,"indent":1,"parameters":[-1,{"list":[{"code":19,"indent":null},{"code":12,"indent":null},{"code":0}],"repeat":false,"skippable":false,"wait":true}]},{"code":505,"indent":1,"parameters":[{"code":19,"indent":null}]},{"code":505,"indent":1,"parameters":[{"code":12,"indent":null}]},{"code":217,"indent":1,"parameters":[]},{"code":121,"indent":1,"parameters":[13,13,0]},{"code":0,"indent":1,"parameters":[]},{"code":412,"indent":0,"parameters":[]},{"code":0,"indent":0,"parameters":[]}],"moveFrequency":3,"moveRoute":{"list":[{"code":0,"parameters":[]}],"repeat":true,"skippable":false,"wait":false},"moveSpeed":3,"moveType":0,"priorityType":1,"stepAnime":false,"through":false,"trigger":1,"walkAnime":true}],"x":8,"y":16},
{"id":5,"name":"EV005","note":"","pages":[{"conditions":{"actorId":1,"actorValid":false,"itemId":1,"itemValid":false,"selfSwitchCh":"A","selfSwitchValid":false,"switch1Id":1,"switch1Valid":false,"switch2Id":1,"switch2Valid":false,"variableId":1,"variableValid":false,"variableValue":0},"directionFix":false,"image":{"characterIndex":6,"characterName":"!Door1","direction":2,"pattern":0,"tileId":0},"list":[{"code":111,"indent":0,"parameters":[0,111,0]},{"code":102,"indent":1,"parameters":[["Continuer","Sortir"],1,0,2,0]},{"code":402,"indent":1,"parameters":[0,"Continuer"]},{"code":250,"indent":2,"parameters":[{"name":"Open2","volume":90,"pitch":60,"pan":0}]},{"code":205,"indent":2,"parameters":[0,{"list":[{"code":17},{"code":15,"parameters":[3]},{"code":18},{"code":15,"parameters":[3]},{"code":19},{"code":37},{"code":0}],"repeat":false,"skippable":false,"wait":true}]},{"code":505,"indent":2,"parameters":[{"code":17}]},{"code":505,"indent":2,"parameters":[{"code":15,"parameters":[3]}]},{"code":505,"indent":2,"parameters":[{"code":18}]},{"code":505,"indent":2,"parameters":[{"code":15,"parameters":[3]}]},{"code":505,"indent":2,"parameters":[{"code":19}]},{"code":505,"indent":2,"parameters":[{"code":37}]},{"code":205,"indent":2,"parameters":[-1,{"list":[{"code":12},{"code":0}],"repeat":false,"skippable":true,"wait":true}]},{"code":505,"indent":2,"parameters":[{"code":12}]},{"code":250,"indent":2,"parameters":[{"name":"Move1","pan":0,"pitch":100,"volume":90}]},{"code":121,"indent":2,"parameters":[13,13,1]},{"code":121,"indent":2,"parameters":[101,101,1]},{"code":201,"indent":2,"parameters":[0,165,8,19,0,0]},{"code":0,"indent":2,"parameters":[]},{"code":402,"indent":1,"parameters":[1,"Sortir"]},{"code":250,"indent":2,"parameters":[{"name":"Open2","volume":90,"pitch":60,"pan":0}]},{"code":205,"indent":2,"parameters":[0,{"list":[{"code":17},{"code":15,"parameters":[3]},{"code":18},{"code":15,"parameters":[3]},{"code":19},{"code":37},{"code":0}],"repeat":false,"skippable":false,"wait":true}]},{"code":505,"indent":2,"parameters":[{"code":17}]},{"code":505,"indent":2,"parameters":[{"code":15,"parameters":[3]}]},{"code":505,"indent":2,"parameters":[{"code":18}]},{"code":505,"indent":2,"parameters":[{"code":15,"parameters":[3]}]},{"code":505,"indent":2,"parameters":[{"code":19}]},{"code":505,"indent":2,"parameters":[{"code":37}]},{"code":205,"indent":2,"parameters":[-1,{"list":[{"code":12},{"code":0}],"repeat":false,"skippable":true,"wait":true}]},{"code":505,"indent":2,"parameters":[{"code":12}]},{"code":250,"indent":2,"parameters":[{"name":"Move1","pan":0,"pitch":100,"volume":90}]},{"code":121,"indent":2,"parameters":[101,101,1]},{"code":201,"indent":2,"parameters":[0,159,10,27,0,0]},{"code":0,"indent":2,"parameters":[]},{"code":404,"indent":1,"parameters":[]},{"code":0,"indent":1,"parameters":[]},{"code":412,"indent":0,"parameters":[]},{"code":0,"indent":0,"parameters":[]}],"moveFrequency":3,"moveRoute":{"list":[{"code":0,"parameters":[]}],"repeat":true,"skippable":false,"wait":false},"moveSpeed":3,"moveType":0,"priorityType":1,"stepAnime":false,"through":false,"trigger":1,"walkAnime":false}],"x":8,"y":4},
{"id":6,"name":"EV006","note":"","pages":[{"conditions":{"actorId":1,"actorValid":false,"itemId":1,"itemValid":false,"selfSwitchCh":"A","selfSwitchValid":false,"switch1Id":1,"switch1Valid":false,"switch2Id":1,"switch2Valid":false,"variableId":1,"variableValid":false,"variableValue":0},"directionFix":true,"image":{"characterIndex":0,"characterName":"!Chest","direction":2,"pattern":1,"tileId":0},"list":[{"code":250,"indent":0,"parameters":[{"name":"Chest1","pan":0,"pitch":100,"volume":90}]},{"code":205,"indent":0,"parameters":[0,{"list":[{"code":36},{"code":17},{"code":15,"parameters":[3]},{"code":18},{"code":15,"parameters":[3]},{"code":0}],"repeat":false,"skippable":false,"wait":true}]},{"code":505,"indent":0,"parameters":[{"code":36}]},{"code":505,"indent":0,"parameters":[{"code":17}]},{"code":505,"indent":0,"parameters":[{"code":15,"parameters":[3]}]},{"code":505,"indent":0,"parameters":[{"code":18}]},{"code":505,"indent":0,"parameters":[{"code":15,"parameters":[3]}]},{"code":123,"indent":0,"parameters":["A",0]},{"code":125,"indent":0,"parameters":[0,0,30]},{"code":101,"indent":0,"parameters":["",0,0,2]},{"code":401,"indent":0,"parameters":["30\\G ont été trouvé(e)s!"]},{"code":0,"indent":0,"parameters":[]}],"moveFrequency":3,"moveRoute":{"list":[{"code":0,"parameters":[]}],"repeat":true,"skippable":false,"wait":false},"moveSpeed":3,"moveType":0,"priorityType":1,"stepAnime":false,"through":false,"trigger":0,"walkAnime":false},{"conditions":{"actorId":1,"actorValid":false,"itemId":1,"itemValid":false,"selfSwitchCh":"A","selfSwitchValid":true,"switch1Id":1,"switch1Valid":false,"switch2Id":1,"switch2Valid":false,"variableId":1,"variableValid":false,"variableValue":0},"directionFix":true,"image":{"characterIndex":0,"characterName":"!Chest","direction":8,"pattern":1,"tileId":0},"list":[{"code":0,"indent":0,"parameters":[]}],"moveFrequency":3,"moveRoute":{"list":[{"code":0,"parameters":[]}],"repeat":true,"skippable":false,"wait":false},"moveSpeed":3,"moveType":0,"priorityType":1,"stepAnime":false,"through":false,"trigger":0,"walkAnime":false}],"x":7,"y":5},
{"id":7,"name":"BOSS2","note":"","pages":[{"conditions":{"actorId":1,"actorValid":false,"itemId":1,"itemValid":false,"selfSwitchCh":"A","selfSwitchValid":false,"switch1Id":1,"switch1Valid":true,"switch2Id":1,"switch2Valid":false,"variableId":1,"variableValid":false,"variableValue":0},"directionFix":false,"image":{"tileId":0,"characterName":"Evil","direction":2,"pattern":1,"characterIndex":5},"list":[{"code":0,"indent":0,"parameters":[]}],"moveFrequency":1,"moveRoute":{"list":[{"code":0,"parameters":[]}],"repeat":true,"skippable":false,"wait":false},"moveSpeed":3,"moveType":0,"priorityType":1,"stepAnime":false,"through":false,"trigger":3,"walkAnime":true},{"conditions":{"actorId":1,"actorValid":false,"itemId":1,"itemValid":false,"selfSwitchCh":"A","selfSwitchValid":false,"switch1Id":8,"switch1Valid":true,"switch2Id":1,"switch2Valid":false,"variableId":1,"variableValid":false,"variableValue":0},"directionFix":false,"image":{"tileId":0,"characterName":"Damage2","direction":6,"pattern":1,"characterIndex":1},"list":[{"code":214,"indent":0,"parameters":[]},{"code":0,"indent":0,"parameters":[]}],"moveFrequency":3,"moveRoute":{"list":[{"code":0,"parameters":[]}],"repeat":true,"skippable":false,"wait":false},"moveSpeed":3,"moveType":0,"priorityType":1,"stepAnime":false,"through":false,"trigger":3,"walkAnime":true}],"x":9,"y":10},
null,
null,
null,
null,
null,
null,
null,
null,
null,
null,
null,
null,
null,
null,
null,
null,
null,
null,
null,
null,
null,
null,
null,
null,
null,
null,
null,
null,
null,
null,
null,
null,
null,
null,
null,
null
]
}