[
null,
{"id":1,"animationId":41,"consumable":true,"damage":{"critical":false,"elementId":0,"formula":"0","type":0,"variance":20},"description":"(Rend 500 PV)","effects":[{"code":11,"dataId":0,"value1":0,"value2":500}],"hitType":0,"iconIndex":179,"itypeId":1,"name":"Potion","note":"","occasion":0,"price":30,"repeats":1,"scope":7,"speed":0,"successRate":100,"tpGain":0},
{"id":2,"animationId":41,"consumable":true,"damage":{"critical":false,"elementId":0,"formula":"0","type":0,"variance":20},"description":"(Rend 200 PM)","effects":[{"code":12,"dataId":0,"value1":0,"value2":200}],"hitType":0,"iconIndex":176,"itypeId":1,"name":"Eau Magique","note":"","occasion":0,"price":100,"repeats":1,"scope":7,"speed":0,"successRate":100,"tpGain":0},
{"id":3,"animationId":45,"consumable":true,"damage":{"critical":false,"elementId":0,"formula":"0","type":0,"variance":20},"description":"(Soigne tout les états)","effects":[{"code":22,"dataId":4,"value1":1,"value2":0},{"code":22,"dataId":5,"value1":1,"value2":0},{"code":22,"dataId":6,"value1":1,"value2":0},{"code":22,"dataId":7,"value1":1,"value2":0},{"code":22,"dataId":8,"value1":1,"value2":0},{"code":22,"dataId":9,"value1":1,"value2":0},{"code":22,"dataId":10,"value1":1,"value2":0},{"code":22,"dataId":11,"value1":1,"value2":0}],"hitType":0,"iconIndex":176,"itypeId":1,"name":"Herbe Dissipatrice","note":"","occasion":0,"price":200,"repeats":1,"scope":7,"speed":0,"successRate":100,"tpGain":0},
{"id":4,"animationId":0,"consumable":true,"damage":{"critical":false,"elementId":0,"formula":"0","type":0,"variance":20},"description":"Le bon vieux remède de grand-mère !\n(Remède à l'état \"Muet\")","effects":[{"code":22,"dataId":6,"value1":1,"value2":0}],"hitType":0,"iconIndex":226,"itypeId":1,"name":"Lait au miel","note":"","occasion":0,"price":20,"repeats":1,"scope":7,"speed":0,"successRate":100,"tpGain":0},
{"id":5,"animationId":41,"consumable":true,"damage":{"critical":false,"elementId":0,"formula":"0","type":0,"variance":20},"description":"(Rend 100 PV)","effects":[{"code":11,"dataId":0,"value1":0,"value2":100}],"hitType":0,"iconIndex":176,"itypeId":1,"name":"Potionounette","note":"","occasion":0,"price":5,"repeats":1,"scope":7,"speed":0,"successRate":100,"tpGain":0},
{"id":6,"animationId":41,"consumable":true,"damage":{"critical":false,"elementId":0,"formula":"0","type":0,"variance":20},"description":"(Rend 20 PM)","effects":[{"code":12,"dataId":0,"value1":0,"value2":20}],"hitType":0,"iconIndex":176,"itypeId":1,"name":"Goutte d'Eau Magique","note":"","occasion":0,"price":15,"repeats":1,"scope":7,"speed":0,"successRate":100,"tpGain":0},
{"id":7,"animationId":45,"consumable":true,"damage":{"critical":false,"elementId":0,"formula":"0","type":0,"variance":20},"description":"(Remède à l'état \"Empoisonné\")","effects":[{"code":22,"dataId":4,"value1":1,"value2":0}],"hitType":0,"iconIndex":176,"itypeId":1,"name":"Antidote","note":"","occasion":0,"price":15,"repeats":1,"scope":7,"speed":0,"successRate":100,"tpGain":0},
{"id":8,"animationId":45,"consumable":true,"damage":{"critical":false,"elementId":0,"formula":"0","type":0,"variance":20},"description":"Mwahahaha !\n(Remède à l'état \"Endormi\")","effects":[{"code":22,"dataId":10,"value1":1,"value2":0}],"hitType":0,"iconIndex":176,"itypeId":1,"name":"Taser magique jetable","note":"","occasion":0,"price":15,"repeats":1,"scope":7,"speed":0,"successRate":100,"tpGain":0},
{"id":9,"animationId":41,"consumable":true,"damage":{"critical":false,"elementId":0,"formula":"0","type":0,"variance":20},"description":"(Rend 250 PV)","effects":[{"code":11,"dataId":0,"value1":0,"value2":250}],"hitType":0,"iconIndex":176,"itypeId":1,"name":"Petite potion","note":"","occasion":0,"price":15,"repeats":1,"scope":7,"speed":0,"successRate":100,"tpGain":0},
{"id":10,"animationId":49,"consumable":true,"damage":{"critical":false,"elementId":0,"formula":"0","type":0,"variance":20},"description":"(Ressuscite)","effects":[{"code":22,"dataId":1,"value1":1,"value2":0}],"hitType":0,"iconIndex":179,"itypeId":1,"name":"Goutte de sève d'Yggdrasil","note":"","occasion":0,"price":200,"repeats":1,"scope":9,"speed":0,"successRate":100,"tpGain":0},
{"id":11,"animationId":0,"consumable":false,"damage":{"critical":false,"elementId":0,"formula":"0","type":0,"variance":20},"description":"Une clef pour ouvrir votre maison à Iryasris.\nMais maintenant, qui va faire le ménage ?","effects":[],"hitType":0,"iconIndex":195,"itypeId":2,"name":"Clef de la maison","note":"","occasion":0,"price":0,"repeats":1,"scope":0,"speed":0,"successRate":100,"tpGain":0},
{"id":12,"animationId":0,"consumable":false,"damage":{"critical":false,"elementId":0,"formula":"0","type":0,"variance":20},"description":"Une clef cachée vicieusement...\nMais qu'ouvre t'elle ?","effects":[],"hitType":0,"iconIndex":195,"itypeId":2,"name":"Clef cachée","note":"","occasion":0,"price":0,"repeats":1,"scope":0,"speed":0,"successRate":100,"tpGain":0},
{"id":13,"animationId":45,"consumable":true,"damage":{"critical":false,"elementId":0,"formula":"0","type":0,"variance":20},"description":"Je me demande ce qu'il y a dans cette seringue...\n(Remède à l'état \"Enragé\")","effects":[{"code":22,"dataId":7,"value1":1,"value2":0}],"hitType":0,"iconIndex":241,"itypeId":1,"name":"Calmant","note":"","occasion":0,"price":20,"repeats":1,"scope":7,"speed":0,"successRate":100,"tpGain":0},
{"id":14,"animationId":0,"consumable":false,"damage":{"critical":false,"elementId":0,"formula":"0","type":0,"variance":20},"description":"L'orbe du temple d'Ulwa.","effects":[],"hitType":0,"iconIndex":165,"itypeId":2,"name":"Orbe de Vie","note":"","occasion":0,"price":0,"repeats":1,"scope":0,"speed":0,"successRate":100,"tpGain":0},
{"id":15,"animationId":0,"consumable":false,"damage":{"critical":false,"elementId":0,"formula":"0","type":0,"variance":20},"description":"L'orbe du temple d'Ishor Anvak.","effects":[],"hitType":0,"iconIndex":164,"itypeId":2,"name":"Orbe du Renouveau","note":"","occasion":0,"price":0,"repeats":1,"scope":0,"speed":0,"successRate":100,"tpGain":0},
{"id":16,"animationId":0,"consumable":false,"damage":{"critical":false,"elementId":0,"formula":"0","type":0,"variance":20},"description":"L'orbe du temple d'Erkagnir.","effects":[],"hitType":0,"iconIndex":162,"itypeId":2,"name":"Orbe du Coeur","note":"","occasion":0,"price":0,"repeats":1,"scope":0,"speed":0,"successRate":100,"tpGain":0},
{"id":17,"animationId":0,"consumable":false,"damage":{"critical":false,"elementId":0,"formula":"0","type":0,"variance":20},"description":"L'orbe du temple de Shukaïzïn.","effects":[],"hitType":0,"iconIndex":163,"itypeId":2,"name":"Orbe de la Vérité","note":"","occasion":0,"price":0,"repeats":1,"scope":0,"speed":0,"successRate":100,"tpGain":0},
{"id":18,"animationId":0,"consumable":false,"damage":{"critical":false,"elementId":0,"formula":"0","type":0,"variance":20},"description":"Cristal formé par les quatres orbes.\nPermet d'ouvrir le temple d'Audhumla.","effects":[],"hitType":0,"iconIndex":303,"itypeId":1,"name":"Cristal de l'Infini","note":"","occasion":0,"price":0,"repeats":1,"scope":7,"speed":0,"successRate":100,"tpGain":0},
{"id":19,"animationId":0,"consumable":false,"damage":{"critical":false,"elementId":0,"formula":"0","type":0,"variance":20},"description":"Une des deux clefs permettant d'ouvrir\nles portes du temple d'Ishor Anvak.","effects":[],"hitType":0,"iconIndex":197,"itypeId":2,"name":"Clef d'Ishor","note":"","occasion":0,"price":0,"repeats":1,"scope":0,"speed":0,"successRate":100,"tpGain":0},
{"id":20,"animationId":0,"consumable":false,"damage":{"critical":false,"elementId":0,"formula":"0","type":0,"variance":20},"description":"Une des deux clefs permettant d'ouvrir\nles portes du temple d'Ishor Anvak.","effects":[],"hitType":0,"iconIndex":197,"itypeId":2,"name":"Clef d'Anvak","note":"","occasion":0,"price":0,"repeats":1,"scope":0,"speed":0,"successRate":100,"tpGain":0},
{"id":21,"animationId":41,"consumable":true,"damage":{"critical":false,"elementId":0,"formula":"0","type":0,"variance":20},"description":"(Rend 100 PM)","effects":[{"code":12,"dataId":0,"value1":0,"value2":100}],"hitType":0,"iconIndex":176,"itypeId":1,"name":"Fiole d'Eau Magique","note":"","occasion":0,"price":50,"repeats":1,"scope":7,"speed":0,"successRate":100,"tpGain":0},
{"id":22,"animationId":0,"consumable":false,"damage":{"critical":false,"elementId":0,"formula":"0","type":0,"variance":20},"description":"Vous permet d'entrer dans\nla citadelle d'Arkadelle.","effects":[],"hitType":0,"iconIndex":193,"itypeId":2,"name":"Autorisation Royale","note":"","occasion":0,"price":0,"repeats":1,"scope":0,"speed":0,"successRate":100,"tpGain":0},
{"id":23,"animationId":1,"consumable":true,"damage":{"critical":false,"elementId":0,"formula":"10 + a.atk * 1 - b.def * 2","type":1,"variance":20},"description":"Attention à ne pas vous piquer...","effects":[{"code":21,"dataId":4,"value1":1,"value2":0}],"hitType":1,"iconIndex":293,"itypeId":1,"name":"Dard","note":"","occasion":1,"price":50,"repeats":1,"scope":1,"speed":0,"successRate":100,"tpGain":0},
{"id":24,"animationId":0,"consumable":false,"damage":{"critical":false,"elementId":0,"formula":"0","type":0,"variance":20},"description":"Une âme étrange, \nrécupérée sur un spectre.","effects":[],"hitType":0,"iconIndex":289,"itypeId":1,"name":"Âme","note":"","occasion":3,"price":0,"repeats":1,"scope":0,"speed":0,"successRate":100,"tpGain":0},
{"id":25,"animationId":0,"consumable":false,"damage":{"critical":false,"elementId":0,"formula":"0","type":0,"variance":20},"description":"Et si on allait jeter\nun coup d'oeil ?","effects":[],"hitType":0,"iconIndex":195,"itypeId":2,"name":"Clef du puit 1","note":"","occasion":0,"price":0,"repeats":1,"scope":0,"speed":0,"successRate":100,"tpGain":0},
{"id":26,"animationId":0,"consumable":false,"damage":{"critical":false,"elementId":0,"formula":"0","type":0,"variance":20},"description":"Tien ! \nUne clef... N°2 !","effects":[],"hitType":0,"iconIndex":195,"itypeId":2,"name":"Clef du puit 2","note":"","occasion":0,"price":0,"repeats":1,"scope":0,"speed":0,"successRate":100,"tpGain":0},
{"id":27,"animationId":0,"consumable":false,"damage":{"critical":false,"elementId":0,"formula":"0","type":0,"variance":20},"description":"Encore une ?!","effects":[],"hitType":0,"iconIndex":195,"itypeId":2,"name":"Clef du puit 3","note":"","occasion":0,"price":0,"repeats":1,"scope":0,"speed":0,"successRate":100,"tpGain":0},
{"id":28,"animationId":0,"consumable":false,"damage":{"critical":false,"elementId":0,"formula":"0","type":0,"variance":20},"description":"Une lettre écrite par le capitaine d'Ism,\nà destination de Nicolaï, habitant à Arkadelle.","effects":[],"hitType":0,"iconIndex":192,"itypeId":2,"name":"Lettre du Capitaine","note":"","occasion":0,"price":0,"repeats":1,"scope":0,"speed":0,"successRate":100,"tpGain":0},
{"id":29,"animationId":0,"consumable":false,"damage":{"critical":false,"elementId":0,"formula":"0","type":0,"variance":20},"description":"Une autorisation écrite par Nicolaï.\nVous pouvez maintenant utiliser son bateau !","effects":[],"hitType":0,"iconIndex":193,"itypeId":2,"name":"Autorisation de Nicolaï","note":"","occasion":0,"price":0,"repeats":1,"scope":0,"speed":0,"successRate":100,"tpGain":0},
{"id":30,"animationId":0,"consumable":false,"damage":{"critical":false,"elementId":0,"formula":"0","type":0,"variance":20},"description":"Pierre permettant d'accèder aux étages \ndu temple de Shukaïzïn","effects":[],"hitType":0,"iconIndex":300,"itypeId":2,"name":"Pierre De Shukaïzïn","note":"","occasion":0,"price":0,"repeats":1,"scope":0,"speed":0,"successRate":100,"tpGain":0},
{"id":31,"animationId":0,"consumable":false,"damage":{"critical":false,"elementId":0,"formula":"0","type":0,"variance":20},"description":"Un fragment de pierre permettant \nd'accèder aux étages du temple de Shukaïzïn.","effects":[],"hitType":0,"iconIndex":300,"itypeId":2,"name":"Fragment De Pierre De Shukaïzïn","note":"","occasion":0,"price":0,"repeats":1,"scope":0,"speed":0,"successRate":100,"tpGain":0},
{"id":32,"animationId":0,"consumable":false,"damage":{"critical":false,"elementId":0,"formula":"0","type":0,"variance":20},"description":"Vous possédez désormais \nun navire digne de ce nom !","effects":[],"hitType":0,"iconIndex":193,"itypeId":2,"name":"Acte De Vente Du Navire","note":"","occasion":0,"price":0,"repeats":1,"scope":0,"speed":0,"successRate":100,"tpGain":0},
{"id":33,"animationId":0,"consumable":false,"damage":{"critical":false,"elementId":0,"formula":"0","type":0,"variance":20},"description":"Une insigne vous permettant d'accèder \nau temple et au château d'Enkar.","effects":[],"hitType":0,"iconIndex":314,"itypeId":2,"name":"Insigne d'Enkar","note":"","occasion":0,"price":0,"repeats":1,"scope":0,"speed":0,"successRate":100,"tpGain":0},
{"id":34,"animationId":0,"consumable":true,"damage":{"critical":false,"elementId":0,"formula":"0","type":0,"variance":20},"description":"Beurk ! C'est gluant !\n(Peut infliger l'état \"confus\" et \"fasciné\")","effects":[{"code":21,"dataId":8,"value1":0.4,"value2":0},{"code":21,"dataId":9,"value1":0.4,"value2":0}],"hitType":0,"iconIndex":228,"itypeId":1,"name":"Gelée de Bloox","note":"","occasion":1,"price":75,"repeats":1,"scope":1,"speed":0,"successRate":100,"tpGain":0},
{"id":35,"animationId":0,"consumable":false,"damage":{"critical":false,"elementId":0,"formula":"0","type":0,"variance":20},"description":"Un joyau gardé jalousement par un dragon.\nSe vend à bon prix.","effects":[],"hitType":0,"iconIndex":300,"itypeId":1,"name":"Joyau","note":"","occasion":0,"price":500,"repeats":1,"scope":0,"speed":0,"successRate":100,"tpGain":0},
{"id":36,"animationId":0,"consumable":false,"damage":{"critical":false,"elementId":0,"formula":"0","type":0,"variance":20},"description":"Clef détenue par Anrak et permettant l'accès\naux étages les plus haut de la tour corrompue.","effects":[],"hitType":0,"iconIndex":195,"itypeId":2,"name":"Clef d'Anrak","note":"","occasion":0,"price":0,"repeats":1,"scope":0,"speed":0,"successRate":100,"tpGain":0},
{"id":37,"animationId":0,"consumable":false,"damage":{"critical":false,"elementId":0,"formula":"0","type":0,"variance":20},"description":"Porté, les pièges des ténèbres vous seront révèlés.","effects":[],"hitType":0,"iconIndex":298,"itypeId":2,"name":"Masque des Morts","note":"","occasion":3,"price":0,"repeats":1,"scope":0,"speed":0,"successRate":100,"tpGain":0},
{"id":38,"animationId":0,"consumable":false,"damage":{"critical":false,"elementId":0,"formula":"0","type":3,"variance":20},"description":"Une plume de la déesse mère, offerte pour \nvous récompenser de vos actions héroïques.","effects":[{"code":22,"dataId":1,"value1":1,"value2":0},{"code":11,"dataId":0,"value1":1,"value2":0}],"hitType":0,"iconIndex":297,"itypeId":2,"name":"Plume d'Audhumla","note":"","occasion":2,"price":0,"repeats":1,"scope":10,"speed":0,"successRate":100,"tpGain":0},
{"id":39,"animationId":0,"consumable":false,"damage":{"critical":false,"elementId":0,"formula":"0","type":0,"variance":20},"description":"Clef vous permettant d'entrer une fois \ndans la Tour Infernale.","effects":[],"hitType":0,"iconIndex":195,"itypeId":2,"name":"Clef de la Tour Infernale","note":"","occasion":0,"price":0,"repeats":1,"scope":0,"speed":0,"successRate":100,"tpGain":0}
]