[
null,
{"id":1,"expanded":true,"name":"Source","order":1,"parentId":0,"scrollX":650.4,"scrollY":390},
{"id":2,"expanded":false,"name":"Plaine d'Oraknär","order":2,"parentId":0,"scrollX":1485.6,"scrollY":1299.6},
{"id":3,"expanded":true,"name":"Village d'Isris","order":3,"parentId":2,"scrollX":570,"scrollY":403},
{"id":4,"expanded":false,"name":"Boutique","order":4,"parentId":3,"scrollX":542,"scrollY":325},
{"id":5,"expanded":false,"name":"Auberge","order":5,"parentId":3,"scrollX":542,"scrollY":325},
{"id":6,"expanded":false,"name":"Temple D'Ulwa Entrée","order":7,"parentId":2,"scrollX":640.8,"scrollY":1299.6},
{"id":7,"expanded":false,"name":"Temple d'Ulwa (RDC)","order":8,"parentId":6,"scrollX":640.8,"scrollY":1050},
{"id":8,"expanded":false,"name":"Temple d'Ulwa (E1)","order":9,"parentId":6,"scrollX":929.1428571428571,"scrollY":557.1428571428571},
{"id":9,"expanded":false,"name":"Maison 1","order":6,"parentId":3,"scrollX":542,"scrollY":325},
{"id":10,"expanded":true,"name":"Campement de l'Ermite","order":10,"parentId":2,"scrollX":915.4285714285713,"scrollY":594.8571428571428},
{"id":11,"expanded":false,"name":"Cabane de l'Ermite","order":11,"parentId":10,"scrollX":929.1428571428571,"scrollY":557.1428571428571},
{"id":12,"expanded":false,"name":"Cachette ermite","order":12,"parentId":10,"scrollX":929.1428571428571,"scrollY":557.1428571428571},
{"id":13,"expanded":false,"name":"Puit ermite","order":13,"parentId":10,"scrollX":929.1428571428571,"scrollY":557.1428571428571},
{"id":14,"expanded":false,"name":"Zone caché oknar Ishenval","order":14,"parentId":2,"scrollX":832,"scrollY":640},
{"id":15,"expanded":false,"name":"Fôret d'Ishenval","order":15,"parentId":0,"scrollX":1166.3999999999999,"scrollY":748.8},
{"id":16,"expanded":false,"name":"Village d'Iryasis","order":16,"parentId":15,"scrollX":534,"scrollY":543},
{"id":17,"expanded":false,"name":"Maison à acheter","order":17,"parentId":16,"scrollX":810,"scrollY":457.5},
{"id":18,"expanded":false,"name":"Puit Iryasris","order":18,"parentId":16,"scrollX":542,"scrollY":305},
{"id":19,"expanded":false,"name":"Boutique","order":19,"parentId":16,"scrollX":542,"scrollY":305},
{"id":20,"expanded":false,"name":"Auberge","order":20,"parentId":16,"scrollX":1182.5454545454545,"scrollY":665.4545454545455},
{"id":21,"expanded":false,"name":"Maison du Maire","order":21,"parentId":16,"scrollX":1440,"scrollY":813.3333333333334},
{"id":22,"expanded":true,"name":"Village de contrebandier","order":22,"parentId":15,"scrollX":640.8,"scrollY":570},
{"id":23,"expanded":true,"name":"Puit","order":23,"parentId":22,"scrollX":832,"scrollY":640},
{"id":24,"expanded":false,"name":"Boutique","order":26,"parentId":22,"scrollX":1296,"scrollY":732},
{"id":25,"expanded":false,"name":"Maison 1","order":27,"parentId":22,"scrollX":1445.3333333333333,"scrollY":813.3333333333334},
{"id":26,"expanded":false,"name":"Maison 2","order":28,"parentId":22,"scrollX":433.6,"scrollY":244},
{"id":27,"expanded":false,"name":"Maison 3","order":29,"parentId":22,"scrollX":648,"scrollY":366},
{"id":28,"expanded":true,"name":"Planque des contrebandiers","order":24,"parentId":23,"scrollX":929.1428571428571,"scrollY":522.8571428571428},
{"id":29,"expanded":false,"name":"Dortoire","order":25,"parentId":28,"scrollX":929.1428571428571,"scrollY":522.8571428571428},
{"id":30,"expanded":false,"name":"Citadelle D'Arkadelle","order":31,"parentId":31,"scrollX":1053,"scrollY":1574},
{"id":31,"expanded":false,"name":"Cité D'Arkadelle","order":30,"parentId":15,"scrollX":1236,"scrollY":1574},
{"id":32,"expanded":false,"name":"Maison bourgeois type1 1","order":37,"parentId":31,"scrollX":542,"scrollY":325},
{"id":33,"expanded":true,"name":"Maison bourgeois type1 2","order":38,"parentId":31,"scrollX":648,"scrollY":366},
{"id":34,"expanded":true,"name":"Maison bourgeois type1 3","order":39,"parentId":31,"scrollX":929.1428571428571,"scrollY":522.8571428571428},
{"id":35,"expanded":false,"name":"Maison bourgeois type2 1","order":40,"parentId":31,"scrollX":925.7142857142857,"scrollY":522.8571428571428},
{"id":36,"expanded":false,"name":"Maison bourgeois type2 2","order":41,"parentId":31,"scrollX":648,"scrollY":366},
{"id":37,"expanded":false,"name":"Maison bourgeois type3 1","order":42,"parentId":31,"scrollX":542,"scrollY":305},
{"id":38,"expanded":false,"name":"Auberge (RDC)","order":43,"parentId":31,"scrollX":562,"scrollY":317},
{"id":39,"expanded":false,"name":"Auberge (E1)","order":44,"parentId":38,"scrollX":589.0909090909091,"scrollY":332.72727272727275},
{"id":40,"expanded":false,"name":"Maison 2","order":46,"parentId":31,"scrollX":832,"scrollY":640},
{"id":41,"expanded":false,"name":"Maison 1","order":45,"parentId":31,"scrollX":542,"scrollY":325},
{"id":42,"expanded":false,"name":"Maison 3","order":47,"parentId":31,"scrollX":648,"scrollY":366},
{"id":43,"expanded":false,"name":"Maison 4","order":48,"parentId":31,"scrollX":648,"scrollY":366},
{"id":44,"expanded":false,"name":"Maison cachée 1","order":49,"parentId":31,"scrollX":648,"scrollY":366},
{"id":45,"expanded":false,"name":"Maison cachée 2","order":50,"parentId":31,"scrollX":589.0909090909091,"scrollY":332.72727272727275},
{"id":46,"expanded":false,"name":"Prison (RDC)","order":51,"parentId":31,"scrollX":542,"scrollY":305},
{"id":47,"expanded":false,"name":"Prison (E1)","order":52,"parentId":46,"scrollX":832,"scrollY":640},
{"id":48,"expanded":false,"name":"Prison (E2)","order":53,"parentId":46,"scrollX":832,"scrollY":640},
{"id":49,"expanded":false,"name":"Prison (E-1)","order":54,"parentId":46,"scrollX":580.3636363636364,"scrollY":435.2727272727273},
{"id":50,"expanded":false,"name":"Maison ferme","order":55,"parentId":31,"scrollX":542,"scrollY":325},
{"id":51,"expanded":true,"name":"Boutique","order":56,"parentId":31,"scrollX":562,"scrollY":317},
{"id":52,"expanded":false,"name":"Grotte","order":57,"parentId":15,"scrollX":990.8571428571428,"scrollY":543.4285714285714},
{"id":53,"expanded":false,"name":"Château d'Arkadelle (RDC)","order":32,"parentId":30,"scrollX":915.4285714285713,"scrollY":1410.8571428571427},
{"id":54,"expanded":true,"name":"Château d'Arkadelle (E1)","order":33,"parentId":30,"scrollX":915.4285714285713,"scrollY":608.5714285714286},
{"id":55,"expanded":false,"name":"Chambre de la princesse","order":34,"parentId":54,"scrollX":1440,"scrollY":813.3333333333334},
{"id":56,"expanded":false,"name":"Chambre du prince","order":35,"parentId":54,"scrollX":925.7142857142857,"scrollY":522.8571428571428},
{"id":57,"expanded":false,"name":"Salle du trône","order":36,"parentId":54,"scrollX":915.4285714285713,"scrollY":642.8571428571428},
{"id":58,"expanded":true,"name":"Temple D'Ishor Anvak (Entrée)","order":58,"parentId":15,"scrollX":534,"scrollY":1115},
{"id":59,"expanded":false,"name":"Cabanne","order":59,"parentId":58,"scrollX":1178.1818181818182,"scrollY":665.4545454545455},
{"id":60,"expanded":true,"name":"Temple D'Ishor Anvak (Dédale)","order":60,"parentId":58,"scrollX":1068,"scrollY":916},
{"id":61,"expanded":false,"name":"Cabanne Cachée","order":61,"parentId":60,"scrollX":1084,"scrollY":650},
{"id":62,"expanded":false,"name":"Temple D'Ishor Anvak (Portes)","order":62,"parentId":58,"scrollX":640.8,"scrollY":810},
{"id":63,"expanded":false,"name":"Temple D'Ishor Anvak (RDC)","order":63,"parentId":58,"scrollX":847.1999999999999,"scrollY":691.1999999999999},
{"id":64,"expanded":false,"name":"Temple D'Ishor Anvak (E1)","order":64,"parentId":58,"scrollX":847.1999999999999,"scrollY":748.8},
{"id":65,"expanded":false,"name":"Temple D'Ishor Anvak (BOSS)","order":65,"parentId":58,"scrollX":640.8,"scrollY":390},
{"id":66,"expanded":false,"name":"Mer d'Ial (Plaine d'Oraknär)","order":66,"parentId":0,"scrollX":1235,"scrollY":1025},
{"id":67,"expanded":true,"name":"Village Portuaire D'Ism","order":67,"parentId":66,"scrollX":615,"scrollY":343},
{"id":68,"expanded":false,"name":"Maison 1","order":68,"parentId":67,"scrollX":589.0909090909091,"scrollY":332.72727272727275},
{"id":69,"expanded":false,"name":"Maison cachée 1 (RDC)","order":69,"parentId":67,"scrollX":589.0909090909091,"scrollY":332.72727272727275},
{"id":70,"expanded":false,"name":"Maison cachée 1 (Cave)","order":70,"parentId":69,"scrollX":589.0909090909091,"scrollY":332.72727272727275},
{"id":71,"expanded":false,"name":"Auberge","order":71,"parentId":67,"scrollX":658,"scrollY":317},
{"id":72,"expanded":false,"name":"Boutique","order":72,"parentId":67,"scrollX":534,"scrollY":347},
{"id":73,"expanded":false,"name":"Puit","order":73,"parentId":67,"scrollX":1440,"scrollY":813.3333333333334},
{"id":74,"expanded":false,"name":"Cellule","order":74,"parentId":73,"scrollX":929.1428571428571,"scrollY":522.8571428571428},
{"id":75,"expanded":false,"name":"Oasis Perdu","order":75,"parentId":66,"scrollX":810,"scrollY":457.5},
{"id":76,"expanded":true,"name":"Village D'Irol","order":76,"parentId":66,"scrollX":534,"scrollY":683},
{"id":77,"expanded":false,"name":"Puit","order":77,"parentId":76,"scrollX":580.3636363636364,"scrollY":771.2727272727273},
{"id":78,"expanded":false,"name":"Maison 1","order":78,"parentId":76,"scrollX":542,"scrollY":325},
{"id":79,"expanded":false,"name":"Auberge","order":79,"parentId":76,"scrollX":1182.5454545454545,"scrollY":665.4545454545455},
{"id":80,"expanded":false,"name":"Mer d'Ial (Fôret d'Ishenval)","order":80,"parentId":0,"scrollX":1166.3999999999999,"scrollY":1708.8},
{"id":81,"expanded":false,"name":"Grotte sous-marine","order":81,"parentId":80,"scrollX":1182.5454545454545,"scrollY":709.0909090909091},
{"id":82,"expanded":true,"name":"Temple De Shukaïzïn (Entrée)","order":82,"parentId":80,"scrollX":1068,"scrollY":838},
{"id":83,"expanded":true,"name":"Bibliothèque D'Oliryam (Entrée)","order":94,"parentId":80,"scrollX":534,"scrollY":1709},
{"id":84,"expanded":false,"name":"Auberge","order":95,"parentId":83,"scrollX":542,"scrollY":325},
{"id":85,"expanded":false,"name":"Boutique Objets","order":96,"parentId":83,"scrollX":832,"scrollY":640},
{"id":86,"expanded":false,"name":"Boutique Stuff","order":97,"parentId":83,"scrollX":540,"scrollY":305},
{"id":87,"expanded":true,"name":"Bibliothèque D'Oliryam (RDC)","order":98,"parentId":83,"scrollX":915,"scrollY":383},
{"id":88,"expanded":false,"name":"Passage vers le temple","order":99,"parentId":87,"scrollX":915.4285714285713,"scrollY":1602.8571428571427},
{"id":89,"expanded":true,"name":"Temple De Shukaïzïn (RDC)","order":83,"parentId":82,"scrollX":847.1999999999999,"scrollY":1737.6},
{"id":90,"expanded":false,"name":"Temple De Shukaïzïn (Salle Nord)","order":84,"parentId":89,"scrollX":1182.5454545454545,"scrollY":665.4545454545455},
{"id":91,"expanded":false,"name":"Temple De Shukaïzïn (Salle Sud)","order":85,"parentId":89,"scrollX":1620,"scrollY":915},
{"id":92,"expanded":false,"name":"Temple De Shukaïzïn (Salle Sud-Ouest)","order":86,"parentId":89,"scrollX":832,"scrollY":640},
{"id":93,"expanded":false,"name":"Temple De Shukaïzïn (Salle Nord-Est)","order":87,"parentId":89,"scrollX":720,"scrollY":406.6666666666667},
{"id":94,"expanded":false,"name":"Temple De Shukaïzïn (Salle Nord-Ouest)","order":88,"parentId":89,"scrollX":720,"scrollY":406.6666666666667},
{"id":95,"expanded":false,"name":"Temple De Shukaïzïn (Salle Sud-Est)","order":89,"parentId":89,"scrollX":650.4,"scrollY":390},
{"id":96,"expanded":false,"name":"Temple De Shukaïzïn (Salle Est)","order":90,"parentId":89,"scrollX":832,"scrollY":640},
{"id":97,"expanded":false,"name":"Temple De Shukaïzïn (Salle Ouest)","order":91,"parentId":89,"scrollX":650.4,"scrollY":390},
{"id":98,"expanded":false,"name":"Temple De Shukaïzïn (E-1)","order":92,"parentId":89,"scrollX":640.8,"scrollY":710.4},
{"id":99,"expanded":false,"name":"Temple De Shukaïzïn (BOSS)","order":93,"parentId":89,"scrollX":640.8,"scrollY":390},
{"id":100,"expanded":false,"name":"Mer d'Ial (Monts d'Aheros)","order":100,"parentId":0,"scrollX":1233.6,"scrollY":691.1999999999999},
{"id":101,"expanded":false,"name":"Forge Arcanique","order":101,"parentId":100,"scrollX":534,"scrollY":395},
{"id":102,"expanded":false,"name":"Forge (Maison)","order":102,"parentId":101,"scrollX":720,"scrollY":406.6666666666667},
{"id":103,"expanded":false,"name":"Forge (Forge)","order":103,"parentId":101,"scrollX":720,"scrollY":406.6666666666667},
{"id":104,"expanded":false,"name":"Village Portuaire D'Iscorn","order":104,"parentId":100,"scrollX":534,"scrollY":505},
{"id":105,"expanded":true,"name":"Boutique","order":105,"parentId":104,"scrollX":480,"scrollY":271.1111111111111},
{"id":106,"expanded":false,"name":"Auberge","order":108,"parentId":104,"scrollX":1182.5454545454545,"scrollY":665.4545454545455},
{"id":107,"expanded":false,"name":"Maison 1 (RDC)","order":109,"parentId":104,"scrollX":480,"scrollY":271.1111111111111},
{"id":108,"expanded":true,"name":"Maison 1 (E-1)","order":110,"parentId":107,"scrollX":832,"scrollY":640},
{"id":109,"expanded":false,"name":"Maison 1 (E-2)","order":111,"parentId":107,"scrollX":480,"scrollY":271.1111111111111},
{"id":110,"expanded":false,"name":"Puit","order":112,"parentId":104,"scrollX":816,"scrollY":391.1111111111111},
{"id":111,"expanded":false,"name":"Boutique (E-2)","order":106,"parentId":105,"scrollX":810,"scrollY":457.5},
{"id":112,"expanded":true,"name":"Boutique (E-1)","order":107,"parentId":105,"scrollX":480,"scrollY":271.1111111111111},
{"id":113,"expanded":false,"name":"Monts d'Ahero","order":113,"parentId":0,"scrollX":1068,"scrollY":1766.3999999999999},
{"id":114,"expanded":true,"name":"Cité D'Enkar","order":114,"parentId":113,"scrollX":534,"scrollY":1171},
{"id":115,"expanded":false,"name":"Maison 1","order":115,"parentId":114,"scrollX":542,"scrollY":325},
{"id":116,"expanded":false,"name":"Maison 2","order":116,"parentId":114,"scrollX":1296,"scrollY":732},
{"id":117,"expanded":false,"name":"Maison 2 (E-1)","order":117,"parentId":116,"scrollX":810,"scrollY":457.5},
{"id":118,"expanded":false,"name":"Maison cachée 1","order":118,"parentId":117,"scrollX":810,"scrollY":457.5},
{"id":119,"expanded":false,"name":"Auberge","order":119,"parentId":114,"scrollX":534,"scrollY":395},
{"id":120,"expanded":false,"name":"Eboulement","order":127,"parentId":113,"scrollX":1440,"scrollY":813.3333333333334},
{"id":121,"expanded":true,"name":"Souterrains (Entrée)","order":120,"parentId":114,"scrollX":1182.5454545454545,"scrollY":709.0909090909091},
{"id":122,"expanded":true,"name":"Souterrains (vers le temple)","order":121,"parentId":121,"scrollX":864,"scrollY":650},
{"id":123,"expanded":false,"name":"Souterrain (vers le temple : cachette)","order":122,"parentId":122,"scrollX":542,"scrollY":325},
{"id":124,"expanded":true,"name":"Temple D'Erkagnir (Entrée)","order":123,"parentId":122,"scrollX":1165.0909090909092,"scrollY":868.3636363636364},
{"id":125,"expanded":false,"name":"Temple D'Erkagnir (RDC)","order":124,"parentId":124,"scrollX":915.5999999999999,"scrollY":385.2},
{"id":126,"expanded":false,"name":"Temple D'Erkagnir (RDC)","order":125,"parentId":124,"scrollX":1039.2,"scrollY":1708.8},
{"id":127,"expanded":false,"name":"Temple D'Erkagnir (BOSS)","order":126,"parentId":124,"scrollX":640.8,"scrollY":762},
{"id":128,"expanded":false,"name":"Forge Légendaire","order":128,"parentId":113,"scrollX":970.6666666666666,"scrollY":804},
{"id":129,"expanded":false,"name":"Puit","order":129,"parentId":128,"scrollX":472.8888888888889,"scrollY":544.8888888888889},
{"id":130,"expanded":false,"name":"Forge (Boutique)","order":130,"parentId":128,"scrollX":480,"scrollY":271.1111111111111},
{"id":131,"expanded":false,"name":"Forge (E-1)","order":131,"parentId":128,"scrollX":720,"scrollY":406.6666666666667},
{"id":132,"expanded":false,"name":"Forge (Maison)","order":132,"parentId":128,"scrollX":720,"scrollY":406.6666666666667},
{"id":133,"expanded":false,"name":"Forge (E-2)","order":133,"parentId":128,"scrollX":720,"scrollY":406.6666666666667},
{"id":134,"expanded":false,"name":"Mer d'Önkar (Monts d'Aheros)","order":134,"parentId":0,"scrollX":1485.6,"scrollY":1857.6},
{"id":135,"expanded":true,"name":"Hutte de Pandore","order":135,"parentId":134,"scrollX":534,"scrollY":547},
{"id":136,"expanded":false,"name":"Tente","order":136,"parentId":135,"scrollX":1182.5454545454545,"scrollY":709.0909090909091},
{"id":137,"expanded":true,"name":"Hutte","order":137,"parentId":135,"scrollX":720,"scrollY":406.6666666666667},
{"id":138,"expanded":false,"name":"Salle des coffres","order":138,"parentId":137,"scrollX":720,"scrollY":406.6666666666667},
{"id":139,"expanded":false,"name":"Terres enneigées d'Ystris","order":139,"parentId":0,"scrollX":915.5999999999999,"scrollY":1161.6},
{"id":140,"expanded":true,"name":"Camps de rescapés","order":140,"parentId":139,"scrollX":534,"scrollY":587},
{"id":141,"expanded":false,"name":"Maison 1","order":141,"parentId":140,"scrollX":929.1428571428571,"scrollY":557.1428571428571},
{"id":142,"expanded":false,"name":"Auberge","order":142,"parentId":140,"scrollX":542,"scrollY":325},
{"id":143,"expanded":false,"name":"Maison cachée 1","order":143,"parentId":140,"scrollX":542,"scrollY":325},
{"id":144,"expanded":true,"name":"Tour Sacrée d'Ystris","order":144,"parentId":139,"scrollX":640.8,"scrollY":1386},
{"id":145,"expanded":false,"name":"Tour Sacrée d'Ystris (RDC)","order":145,"parentId":144,"scrollX":640.8,"scrollY":666},
{"id":146,"expanded":false,"name":"Tour Corrompue d'Ystris (E1)","order":146,"parentId":144,"scrollX":832,"scrollY":640},
{"id":147,"expanded":false,"name":"Tour Corrompue d'Ystris (E2)","order":147,"parentId":144,"scrollX":832,"scrollY":640},
{"id":148,"expanded":false,"name":"Tour Corrompue d'Ystris (E3)","order":148,"parentId":144,"scrollX":534,"scrollY":731},
{"id":149,"expanded":true,"name":"Tour Corrompue d'Ystris (E4)","order":149,"parentId":144,"scrollX":640.8,"scrollY":567.6},
{"id":150,"expanded":false,"name":"Tour Corrompue d'Ystris (E5)","order":150,"parentId":144,"scrollX":640.8,"scrollY":666},
{"id":151,"expanded":false,"name":"Tour Corrompue d'Ystris (E6)","order":151,"parentId":144,"scrollX":929.1428571428571,"scrollY":557.1428571428571},
{"id":152,"expanded":false,"name":"Tour Corrompue d'Ystris (E7)","order":152,"parentId":144,"scrollX":712,"scrollY":622.6666666666666},
{"id":153,"expanded":false,"name":"Tour Corrompue d'Ystris (E8)","order":153,"parentId":144,"scrollX":712,"scrollY":622.6666666666666},
{"id":154,"expanded":false,"name":"Tour Corrompue d'Ystris (E10)","order":156,"parentId":144,"scrollX":640.8,"scrollY":566.4},
{"id":155,"expanded":false,"name":"Tour Corrompue d'Ystris (BOSS)","order":157,"parentId":144,"scrollX":711.6,"scrollY":433.2},
{"id":156,"expanded":true,"name":"Tour Corrompue d'Ystris (E9) pieges invisibles","order":154,"parentId":144,"scrollX":712,"scrollY":568},
{"id":157,"expanded":false,"name":"Tour Corrompue d'Ystris (E9) pieges visibles","order":155,"parentId":156,"scrollX":640.8,"scrollY":622.8},
{"id":158,"expanded":false,"name":"Mer d'Önkar (Fôret d'Ishenval)","order":158,"parentId":0,"scrollX":1458,"scrollY":624},
{"id":159,"expanded":true,"name":"Tour Infernale (Extérieur)","order":159,"parentId":158,"scrollX":640.8,"scrollY":1328.3999999999999},
{"id":160,"expanded":false,"name":"Maison 1","order":160,"parentId":159,"scrollX":650.4,"scrollY":390},
{"id":161,"expanded":false,"name":"Auberge Boutique","order":161,"parentId":159,"scrollX":650.4,"scrollY":390},
{"id":162,"expanded":false,"name":"Tour Infernale (RDC)","order":162,"parentId":159,"scrollX":640.8,"scrollY":618},
{"id":163,"expanded":false,"name":"Tour Infernale (E1)","order":163,"parentId":159,"scrollX":640.8,"scrollY":498},
{"id":164,"expanded":false,"name":"Tour Infernale (E2)","order":164,"parentId":159,"scrollX":832,"scrollY":640},
{"id":165,"expanded":false,"name":"Tour Infernale (E3)","order":165,"parentId":159,"scrollX":640.8,"scrollY":450},
{"id":166,"expanded":false,"name":"Tour Infernale (E4)","order":166,"parentId":159,"scrollX":640.8,"scrollY":498},
{"id":167,"expanded":false,"name":"Tour Infernale (E5)","order":167,"parentId":159,"scrollX":640.8,"scrollY":570},
{"id":168,"expanded":false,"name":"Tour Infernale (Sommet)","order":168,"parentId":159,"scrollX":640.8,"scrollY":618},
{"id":169,"expanded":false,"name":"Puit","order":169,"parentId":159,"scrollX":832,"scrollY":640}
]