[
null,
{"id":1,"battlerName":"Jeremheu","characterIndex":0,"characterName":"Jeremheu","classId":1,"equips":[0,0,0,3,0],"faceIndex":0,"faceName":"Jeremheu","traits":[],"initialLevel":1,"maxLevel":99,"name":"Jérémheu","nickname":"","note":"","profile":""},
{"id":2,"battlerName":"Mheuliann","characterIndex":0,"characterName":"Mheuliann","classId":3,"equips":[0,1,0,3,0],"faceIndex":0,"faceName":"Mheuliann","traits":[],"initialLevel":1,"maxLevel":99,"name":"Mheuliann","nickname":"","note":"","profile":""},
{"id":3,"battlerName":"Mheutin","characterIndex":0,"characterName":"Mheutin","classId":2,"equips":[0,0,0,3,0],"faceIndex":0,"faceName":"Mheutin","traits":[],"initialLevel":1,"maxLevel":99,"name":"Mheutin","nickname":"","note":"","profile":""},
{"id":4,"battlerName":"Mheullyne","characterIndex":0,"characterName":"Mheullyne","classId":4,"equips":[0,0,0,3,0],"faceIndex":0,"faceName":"Mheullyne","traits":[],"initialLevel":1,"maxLevel":99,"name":"Mheullyne","nickname":"","note":"","profile":""}
]